intelFPGA_lite/adder_full(fpga)/simulation/qsim/adder_full.msim.vcd
$comment
	File created using the following command:
		vcd file adder_full.msim.vcd -direction
$end
$date
	Tue May 02 09:34:57 2023
$end
$version
	ModelSim Version 10.5b
$end
$timescale
	1ps
$end

$scope module adder_full_vlg_vec_tst $end
$var reg 1 ! A $end
$var reg 1 " B $end
$var reg 1 # C $end
$var wire 1 $ CY $end
$var wire 1 % SUM $end

$scope module i1 $end
$var wire 1 & gnd $end
$var wire 1 ' vcc $end
$var wire 1 ( unknown $end
$var tri1 1 ) devclrn $end
$var tri1 1 * devpor $end
$var tri1 1 + devoe $end
$var wire 1 , ~QUARTUS_CREATED_GND~I_combout $end
$var wire 1 - C~input_o $end
$var wire 1 . B~input_o $end
$var wire 1 / A~input_o $end
$var wire 1 0 inst~combout $end
$var wire 1 1 inst3~combout $end
$upscope $end
$upscope $end
$enddefinitions $end
#0
$dumpvars
0!
1"
1#
1$
0%
0&
1'
x(
1)
1*
1+
0,
1-
1.
0/
10
01
$end
#10000
0"
0#
0.
0-
00
0$
#20000
1!
1/
11
1%
#30000
1"
1#
0!
1.
1-
0/
01
10
1$
0%
#40000
0"
1!
0.
1/
#50000
0!
0/
11
00
0$
1%
#60000
0#
1"
0-
1.
#90000
0"
0.
01
0%
#100000
1!
1#
1"
1/
1-
1.
11
10
1$
1%
#110000
0!
0/
01
0%
#120000
0"
0.
11
00
0$
1%
#130000
0#
1!
0-
1/
#150000
0!
0/
01
0%
#160000
1!
1/
11
1%
#170000
1"
1#
0!
1.
1-
0/
01
10
1$
0%
#180000
0"
0#
0.
0-
00
0$
#200000
1"
1.
11
1%
#210000
1!
1#
0"
1/
1-
0.
01
10
1$
0%
#220000
0!
1"
0/
1.
#230000
0#
0-
11
00
0$
1%
#240000
1#
1-
01
10
1$
0%
#250000
1!
0#
1/
0-
#260000
0"
0.
11
00
0$
1%
#280000
0!
0/
01
0%
#290000
1#
1"
1!
1-
1.
1/
11
10
1$
1%
#300000
0#
0!
0-
0/
00
0$
#310000
0"
0.
01
0%
#320000
1#
1"
1-
1.
10
1$
#330000
0#
0"
0-
0.
00
0$
#350000
1!
1"
1/
1.
10
1$
#360000
0"
0.
11
00
0$
1%
#370000
0!
0/
01
0%
#380000
1#
1"
1-
1.
10
1$
#390000
1!
0#
0"
1/
0-
0.
11
00
0$
1%
#400000
0!
0/
01
0%
#410000
1"
1!
1.
1/
10
1$
#420000
1#
0!
1-
0/
#430000
1!
1/
11
1%
#440000
0"
0#
0.
0-
00
0$
#450000
1#
1-
01
10
1$
0%
#460000
0!
0#
0/
0-
00
0$
#470000
1#
1-
11
1%
#480000
1!
0#
1/
0-
#490000
1"
0!
1#
1.
0/
1-
01
10
1$
0%
#510000
1!
1/
11
1%
#520000
0!
0/
01
0%
#530000
0#
0-
11
00
0$
1%
#540000
1#
1-
01
10
1$
0%
#550000
0#
0-
11
00
0$
1%
#560000
0"
1#
0.
1-
#570000
0#
0-
01
0%
#580000
1!
1/
11
1%
#590000
1"
1#
1.
1-
10
1$
#610000
0!
0"
0/
0.
00
0$
#620000
0#
1"
0-
1.
#630000
1!
1#
0"
1/
1-
0.
01
10
1$
0%
#640000
0#
1"
0-
1.
#650000
0!
1#
0"
0/
1-
0.
11
00
0$
1%
#660000
0#
1"
0-
1.
#670000
1!
1#
1/
1-
10
1$
#680000
0"
0#
0.
0-
00
0$
#690000
0!
1#
0/
1-
#710000
1"
1!
0#
1.
1/
0-
01
10
1$
0%
#720000
0"
0!
0.
0/
00
0$
#730000
1#
1!
1-
1/
10
1$
#740000
1"
0#
0!
1.
0-
0/
11
00
0$
1%
#750000
1#
1-
01
10
1$
0%
#760000
0"
1!
0.
1/
#770000
0!
0/
11
00
0$
1%
#780000
1!
1/
01
10
1$
0%
#790000
0#
0!
0-
0/
00
0$
#800000
1"
1!
1.
1/
10
1$
#810000
1#
0"
0!
1-
0.
0/
11
00
0$
1%
#820000
1"
1!
1.
1/
10
1$
#830000
0#
0"
0-
0.
00
0$
#850000
0!
1#
1"
0/
1-
1.
01
10
1$
0%
#860000
0#
0-
11
00
0$
1%
#870000
1#
1-
01
10
1$
0%
#880000
0#
0-
11
00
0$
1%
#890000
0"
0.
01
0%
#920000
1#
1-
11
1%
#930000
1"
1.
01
10
1$
0%
#950000
1!
0"
1/
0.
#960000
0#
1"
0-
1.
#970000
0"
0.
11
00
0$
1%
#980000
1#
1-
01
10
1$
0%
#990000
0!
1"
0#
0/
1.
0-
11
00
0$
1%
