intelFPGA_lite/clock(0~59)vhdl/simulation/qsim/clock_60.msim.vcd
$comment
	File created using the following command:
		vcd file clock_60.msim.vcd -direction
$end
$date
	Tue May 09 10:25:37 2023
$end
$version
	ModelSim Version 10.5b
$end
$timescale
	1ps
$end

$scope module clock_60_vlg_vec_tst $end
$var reg 1 ! clk $end
$var reg 1 " reset $end
$var wire 1 # led1 [6] $end
$var wire 1 $ led1 [5] $end
$var wire 1 % led1 [4] $end
$var wire 1 & led1 [3] $end
$var wire 1 ' led1 [2] $end
$var wire 1 ( led1 [1] $end
$var wire 1 ) led1 [0] $end
$var wire 1 * led2 [6] $end
$var wire 1 + led2 [5] $end
$var wire 1 , led2 [4] $end
$var wire 1 - led2 [3] $end
$var wire 1 . led2 [2] $end
$var wire 1 / led2 [1] $end
$var wire 1 0 led2 [0] $end

$scope module i1 $end
$var wire 1 1 gnd $end
$var wire 1 2 vcc $end
$var wire 1 3 unknown $end
$var tri1 1 4 devclrn $end
$var tri1 1 5 devpor $end
$var tri1 1 6 devoe $end
$var wire 1 7 ~QUARTUS_CREATED_GND~I_combout $end
$var wire 1 8 clk~input_o $end
$var wire 1 9 clk~inputCLKENA0_outclk $end
$var wire 1 : count_10[0]~3_combout $end
$var wire 1 ; reset~input_o $end
$var wire 1 < count_10[1]~DUPLICATE_q $end
$var wire 1 = count_10[2]~1_combout $end
$var wire 1 > count_10[2]~DUPLICATE_q $end
$var wire 1 ? count_10~2_combout $end
$var wire 1 @ count_10[3]~DUPLICATE_q $end
$var wire 1 A count_10~0_combout $end
$var wire 1 B led1~0_combout $end
$var wire 1 C WideOr5~0_combout $end
$var wire 1 D WideOr4~0_combout $end
$var wire 1 E WideOr3~0_combout $end
$var wire 1 F WideOr2~0_combout $end
$var wire 1 G WideOr1~0_combout $end
$var wire 1 H WideOr0~0_combout $end
$var wire 1 I Equal1~0_combout $end
$var wire 1 J count_6[0]~3_combout $end
$var wire 1 K count_6[0]~DUPLICATE_q $end
$var wire 1 L count_6[3]~2_combout $end
$var wire 1 M count_6~1_combout $end
$var wire 1 N count_6~0_combout $end
$var wire 1 O led2~0_combout $end
$var wire 1 P WideOr11~0_combout $end
$var wire 1 Q WideOr10~0_combout $end
$var wire 1 R WideOr9~0_combout $end
$var wire 1 S WideOr8~0_combout $end
$var wire 1 T WideOr7~0_combout $end
$var wire 1 U WideOr6~0_combout $end
$var wire 1 V count_10 [3] $end
$var wire 1 W count_10 [2] $end
$var wire 1 X count_10 [1] $end
$var wire 1 Y count_10 [0] $end
$var wire 1 Z count_6 [3] $end
$var wire 1 [ count_6 [2] $end
$var wire 1 \ count_6 [1] $end
$var wire 1 ] count_6 [0] $end
$upscope $end
$upscope $end
$enddefinitions $end
#0
$dumpvars
0!
1"
1)
1(
1'
1&
1%
1$
0#
10
1/
1.
1-
1,
1+
0*
01
12
x3
14
15
16
07
08
09
1:
1;
0<
0=
0>
0?
0@
0A
0B
0C
0D
0E
0F
0G
0H
0I
1J
0K
0L
0M
0N
0O
0P
0Q
0R
0S
0T
0U
0Y
0X
0W
0V
0]
0\
0[
0Z
$end
#5000
1!
18
19
1Y
1G
1F
1E
1B
1A
0:
0)
0&
0%
0$
#10000
0!
08
09
#15000
1!
18
19
1X
1<
0Y
0F
0E
1D
0B
1H
1:
1#
1)
0'
1&
1%
#20000
0!
08
09
#25000
1!
18
19
1Y
1F
0D
0A
1=
0:
1'
0%
#30000
0!
08
09
#35000
1!
18
19
0X
1>
1W
0<
0Y
0G
1E
1B
1:
0)
0&
1$
#40000
0!
08
09
#45000
1!
18
19
1Y
0E
1C
0B
1A
0:
1)
0(
1&
#50000
0!
08
09
#55000
1!
18
19
1X
1<
0Y
0F
1:
1%
#60000
0!
08
09
#65000
1!
18
19
1Y
1G
1F
1E
0C
0H
0A
1?
0=
0:
0#
1(
0&
0%
0$
#70000
0!
08
09
#75000
1!
18
19
0X
1@
0>
0W
0<
1V
0Y
0G
0F
0E
1H
1:
1#
1&
1%
1$
#80000
0!
08
09
#85000
1!
18
19
1Y
1I
1F
0?
0:
0%
#90000
0!
08
09
#95000
1!
18
19
1K
1]
0@
0V
0Y
0I
0F
1S
1T
1R
1O
0H
1:
0J
1N
0#
00
0-
0+
0,
1%
#100000
0!
08
09
#105000
1!
18
19
1Y
1G
1F
1E
1B
1A
0:
0)
0&
0%
0$
#110000
0!
08
09
#115000
1!
18
19
1X
1<
0Y
0F
0E
1D
0B
1H
1:
1#
1)
0'
1&
1%
#120000
0!
08
09
#125000
1!
18
19
1Y
1F
0D
0A
1=
0:
1'
0%
#130000
0!
08
09
#135000
1!
18
19
0X
1>
1W
0<
0Y
0G
1E
1B
1:
0)
0&
1$
#140000
0!
08
09
#145000
1!
18
19
1Y
0E
1C
0B
1A
0:
1)
0(
1&
#150000
0!
08
09
#155000
1!
18
19
1X
1<
0Y
0F
1:
1%
#160000
0!
08
09
#165000
1!
18
19
1Y
1G
1F
1E
0C
0H
0A
1?
0=
0:
0#
1(
0&
0%
0$
#170000
0!
08
09
#175000
1!
18
19
0X
1@
0>
0W
0<
1V
0Y
0G
0F
0E
1H
1:
1#
1&
1%
1$
#180000
0!
08
09
#185000
1!
18
19
1Y
1I
1F
0?
0:
0%
#190000
0!
08
09
#195000
1!
18
19
1\
0K
0]
0@
0V
0Y
0I
0F
0S
1Q
0R
0O
0H
1:
1J
1U
1*
0#
10
1-
0.
1,
1%
#200000
0!
08
09
#205000
1!
18
19
1Y
1G
1F
1E
1B
1A
0:
0)
0&
0%
0$
#210000
0!
08
09
#215000
1!
18
19
1X
1<
0Y
0F
0E
1D
0B
1H
1:
1#
1)
0'
1&
1%
#220000
0!
08
09
#225000
1!
18
19
1Y
1F
0D
0A
1=
0:
1'
0%
#230000
0!
08
09
#235000
1!
18
19
0X
1>
1W
0<
0Y
0G
1E
1B
1:
0)
0&
1$
#240000
0!
08
09
#245000
1!
18
19
1Y
0E
1C
0B
1A
0:
1)
0(
1&
#250000
0!
08
09
#255000
1!
18
19
1X
1<
0Y
0F
1:
1%
#260000
0!
08
09
#265000
1!
18
19
1Y
1G
1F
1E
0C
0H
0A
1?
0=
0:
0#
1(
0&
0%
0$
#270000
0!
08
09
#275000
1!
18
19
0X
1@
0>
0W
0<
1V
0Y
0G
0F
0E
1H
1:
1#
1&
1%
1$
#280000
0!
08
09
#285000
1!
18
19
1Y
1I
1F
0?
0:
0%
#290000
0!
08
09
#295000
1!
18
19
1K
1]
0@
0V
0Y
0I
0F
1S
0Q
0H
1:
0J
0N
1M
0#
1.
0,
1%
#300000
0!
08
09
#305000
1!
18
19
1Y
1G
1F
1E
1B
1A
0:
0)
0&
0%
0$
#310000
0!
08
09
#315000
1!
18
19
1X
1<
0Y
0F
0E
1D
0B
1H
1:
1#
1)
0'
1&
1%
#320000
0!
08
09
#325000
1!
18
19
1Y
1F
0D
0A
1=
0:
1'
0%
#330000
0!
08
09
#335000
1!
18
19
0X
1>
1W
0<
0Y
0G
1E
1B
1:
0)
0&
1$
#340000
0!
08
09
#345000
1!
18
19
1Y
0E
1C
0B
1A
0:
1)
0(
1&
#350000
0!
08
09
#355000
1!
18
19
1X
1<
0Y
0F
1:
1%
#360000
0!
08
09
#365000
1!
18
19
1Y
1G
1F
1E
0C
0H
0A
1?
0=
0:
0#
1(
0&
0%
0$
#370000
0!
08
09
#375000
1!
18
19
0X
1@
0>
0W
0<
1V
0Y
0G
0F
0E
1H
1:
1#
1&
1%
1$
#380000
0!
08
09
#385000
1!
18
19
1Y
1I
1F
0?
0:
0%
#390000
0!
08
09
#395000
1!
18
19
0\
1[
0K
0]
0@
0V
0Y
0I
0F
0T
1R
1O
0H
1:
1J
0#
00
0-
1+
1%
#400000
0!
08
09
#405000
1!
18
19
1Y
1G
1F
1E
1B
1A
0:
0)
0&
0%
0$
#410000
0!
08
09
#415000
1!
18
19
1X
1<
0Y
0F
0E
1D
0B
1H
1:
1#
1)
0'
1&
1%
#420000
0!
08
09
#425000
1!
18
19
1Y
1F
0D
0A
1=
0:
1'
0%
#430000
0!
08
09
#435000
1!
18
19
0X
1>
1W
0<
0Y
0G
1E
1B
1:
0)
0&
1$
#440000
0!
08
09
#445000
1!
18
19
1Y
0E
1C
0B
1A
0:
1)
0(
1&
#450000
0!
08
09
#455000
1!
18
19
1X
1<
0Y
0F
1:
1%
#460000
0!
08
09
#465000
1!
18
19
1Y
1G
1F
1E
0C
0H
0A
1?
0=
0:
0#
1(
0&
0%
0$
#470000
0!
08
09
#475000
1!
18
19
0X
1@
0>
0W
0<
1V
0Y
0G
0F
0E
1H
1:
1#
1&
1%
1$
#480000
0!
08
09
#485000
1!
18
19
1Y
1I
1F
0?
0:
0%
#490000
0!
08
09
#495000
1!
18
19
1K
1]
0@
0V
0Y
0I
0F
0R
1P
0O
0H
1:
0J
0M
0#
10
0/
1-
1%
#500000
0!
08
09
#505000
1!
18
19
1Y
1G
1F
1E
1B
1A
0:
0)
0&
0%
0$
#510000
0!
08
09
#515000
1!
18
19
1X
1<
0Y
0F
0E
1D
0B
1H
1:
1#
1)
0'
1&
1%
#520000
0!
08
09
#525000
1!
18
19
1Y
1F
0D
0A
1=
0:
1'
0%
#530000
0!
08
09
#535000
1!
18
19
0X
1>
1W
0<
0Y
0G
1E
1B
1:
0)
0&
1$
#540000
0!
08
09
#545000
1!
18
19
1Y
0E
1C
0B
1A
0:
1)
0(
1&
#550000
0!
08
09
#555000
1!
18
19
1X
1<
0Y
0F
1:
1%
#560000
0!
08
09
#565000
1!
18
19
1Y
1G
1F
1E
0C
0H
0A
1?
0=
0:
0#
1(
0&
0%
0$
#570000
0!
08
09
#575000
1!
18
19
0X
1@
0>
0W
0<
1V
0Y
0G
0F
0E
1H
1:
1#
1&
1%
1$
#580000
0!
08
09
#585000
1!
18
19
1Y
1I
1F
0?
0:
0%
#590000
0!
08
09
#595000
1!
18
19
0[
0K
0]
0@
0V
0Y
0I
0F
0S
0P
0H
1:
1J
0U
0*
0#
1/
1,
1%
#600000
0!
08
09
#605000
1!
18
19
1Y
1G
1F
1E
1B
1A
0:
0)
0&
0%
0$
#610000
0!
08
09
#615000
1!
18
19
1X
1<
0Y
0F
0E
1D
0B
1H
1:
1#
1)
0'
1&
1%
#620000
0!
08
09
#625000
1!
18
19
1Y
1F
0D
0A
1=
0:
1'
0%
#630000
0!
08
09
#635000
1!
18
19
0X
1>
1W
0<
0Y
0G
1E
1B
1:
0)
0&
1$
#640000
0!
08
09
#645000
1!
18
19
1Y
0E
1C
0B
1A
0:
1)
0(
1&
#650000
0!
08
09
#655000
1!
18
19
1X
1<
0Y
0F
1:
1%
#660000
0!
08
09
#665000
1!
18
19
1Y
1G
1F
1E
0C
0H
0A
1?
0=
0:
0#
1(
0&
0%
0$
#670000
0!
08
09
#675000
1!
18
19
0X
1@
0>
0W
0<
1V
0Y
0G
0F
0E
1H
1:
1#
1&
1%
1$
#680000
0!
08
09
#685000
1!
18
19
1Y
1I
1F
0?
0:
0%
#690000
0!
08
09
#695000
1!
18
19
1K
1]
0@
0V
0Y
0I
0F
1S
1T
1R
1O
0H
1:
0J
1N
0#
00
0-
0+
0,
1%
#700000
0!
08
09
#705000
1!
18
19
1Y
1G
1F
1E
1B
1A
0:
0)
0&
0%
0$
#710000
0!
08
09
#715000
1!
18
19
1X
1<
0Y
0F
0E
1D
0B
1H
1:
1#
1)
0'
1&
1%
#720000
0!
08
09
#725000
1!
18
19
1Y
1F
0D
0A
1=
0:
1'
0%
#730000
0!
08
09
#735000
1!
18
19
0X
1>
1W
0<
0Y
0G
1E
1B
1:
0)
0&
1$
#740000
0!
08
09
#745000
1!
18
19
1Y
0E
1C
0B
1A
0:
1)
0(
1&
#750000
0!
08
09
#755000
1!
18
19
1X
1<
0Y
0F
1:
1%
#760000
0!
08
09
#765000
1!
18
19
1Y
1G
1F
1E
0C
0H
0A
1?
0=
0:
0#
1(
0&
0%
0$
#770000
0!
08
09
#775000
1!
18
19
0X
1@
0>
0W
0<
1V
0Y
0G
0F
0E
1H
1:
1#
1&
1%
1$
#780000
0!
08
09
#785000
1!
18
19
1Y
1I
1F
0?
0:
0%
#790000
0!
08
09
#795000
1!
18
19
1\
0K
0]
0@
0V
0Y
0I
0F
0S
1Q
0R
0O
0H
1:
1J
1U
1*
0#
10
1-
0.
1,
1%
#800000
0!
08
09
#805000
1!
18
19
1Y
1G
1F
1E
1B
1A
0:
0)
0&
0%
0$
#810000
0!
08
09
#815000
1!
18
19
1X
1<
0Y
0F
0E
1D
0B
1H
1:
1#
1)
0'
1&
1%
#820000
0!
08
09
#825000
1!
18
19
1Y
1F
0D
0A
1=
0:
1'
0%
#830000
0!
08
09
#835000
1!
18
19
0X
1>
1W
0<
0Y
0G
1E
1B
1:
0)
0&
1$
#840000
0!
08
09
#845000
1!
18
19
1Y
0E
1C
0B
1A
0:
1)
0(
1&
#850000
0!
08
09
#855000
1!
18
19
1X
1<
0Y
0F
1:
1%
#860000
0!
08
09
#865000
1!
18
19
1Y
1G
1F
1E
0C
0H
0A
1?
0=
0:
0#
1(
0&
0%
0$
#870000
0!
08
09
#875000
1!
18
19
0X
1@
0>
0W
0<
1V
0Y
0G
0F
0E
1H
1:
1#
1&
1%
1$
#880000
0!
08
09
#885000
1!
18
19
1Y
1I
1F
0?
0:
0%
#890000
0!
08
09
#895000
1!
18
19
1K
1]
0@
0V
0Y
0I
0F
1S
0Q
0H
1:
0J
0N
1M
0#
1.
0,
1%
#900000
0!
08
09
#905000
1!
18
19
1Y
1G
1F
1E
1B
1A
0:
0)
0&
0%
0$
#910000
0!
08
09
#915000
1!
18
19
1X
1<
0Y
0F
0E
1D
0B
1H
1:
1#
1)
0'
1&
1%
#920000
0!
08
09
#925000
1!
18
19
1Y
1F
0D
0A
1=
0:
1'
0%
#930000
0!
08
09
#935000
1!
18
19
0X
1>
1W
0<
0Y
0G
1E
1B
1:
0)
0&
1$
#940000
0!
08
09
#945000
1!
18
19
1Y
0E
1C
0B
1A
0:
1)
0(
1&
#950000
0!
08
09
#955000
1!
18
19
1X
1<
0Y
0F
1:
1%
#960000
0!
08
09
#965000
1!
18
19
1Y
1G
1F
1E
0C
0H
0A
1?
0=
0:
0#
1(
0&
0%
0$
#970000
0!
08
09
#975000
1!
18
19
0X
1@
0>
0W
0<
1V
0Y
0G
0F
0E
1H
1:
1#
1&
1%
1$
#980000
0!
08
09
#985000
1!
18
19
1Y
1I
1F
0?
0:
0%
#990000
0!
08
09
#995000
1!
18
19
0\
1[
0K
0]
0@
0V
0Y
0I
0F
0T
1R
1O
0H
1:
1J
0#
00
0-
1+
1%
