intelFPGA_lite/bcd_decoder(vhdl)/simulation/qsim/bcd_decoder.msim.vcd
$comment
	File created using the following command:
		vcd file bcd_decoder.msim.vcd -direction
$end
$date
	Tue May 02 10:08:43 2023
$end
$version
	ModelSim Version 10.5b
$end
$timescale
	1ps
$end

$scope module bcd_decoder_vlg_vec_tst $end
$var reg 4 ! cntin [3:0] $end
$var wire 1 " bcdout [6] $end
$var wire 1 # bcdout [5] $end
$var wire 1 $ bcdout [4] $end
$var wire 1 % bcdout [3] $end
$var wire 1 & bcdout [2] $end
$var wire 1 ' bcdout [1] $end
$var wire 1 ( bcdout [0] $end

$scope module i1 $end
$var wire 1 ) gnd $end
$var wire 1 * vcc $end
$var wire 1 + unknown $end
$var tri1 1 , devclrn $end
$var tri1 1 - devpor $end
$var tri1 1 . devoe $end
$var wire 1 / ~QUARTUS_CREATED_GND~I_combout $end
$var wire 1 0 cntin[1]~input_o $end
$var wire 1 1 cntin[2]~input_o $end
$var wire 1 2 cntin[3]~input_o $end
$var wire 1 3 cntin[0]~input_o $end
$var wire 1 4 WideOr5~0_combout $end
$var wire 1 5 WideOr4~0_combout $end
$var wire 1 6 WideOr3~0_combout $end
$var wire 1 7 WideOr2~0_combout $end
$var wire 1 8 WideOr1~0_combout $end
$var wire 1 9 WideOr0~0_combout $end
$var wire 1 : bcdout~0_combout $end
$upscope $end
$upscope $end
$enddefinitions $end
#0
$dumpvars
b100 !
1(
1'
0&
0%
1$
1#
0"
0)
1*
x+
1,
1-
1.
0/
00
11
02
03
14
05
16
17
08
09
1:
$end
#10000
b0 !
b10 !
b11 !
13
10
01
0:
07
15
0'
1%
1"
#20000
b1011 !
b1111 !
b1101 !
00
11
12
19
18
06
05
1'
1&
0$
0#
#30000
b101 !
b111 !
10
02
09
08
17
16
15
04
0(
0'
0&
0%
1$
1#
#40000
b11 !
01
07
14
1(
1%
#50000
b1 !
b101 !
00
11
19
05
1'
0#
#60000
b1101 !
b1001 !
01
12
09
15
0'
1#
#80000
b1101 !
11
19
18
06
05
1'
1&
0$
0#
#90000
b1100 !
b1110 !
03
10
#100000
b110 !
b10 !
b11 !
b1 !
13
00
01
02
1:
09
08
17
16
15
04
0(
0'
0&
0%
1$
1#
0"
#110000
b1001 !
b1101 !
b1111 !
10
11
12
0:
19
18
07
06
05
14
1(
1'
1&
1%
0$
0#
1"
#120000
b111 !
02
09
08
17
16
15
04
0(
0'
0&
0%
1$
1#
#130000
b110 !
b10 !
03
01
18
07
06
14
1(
1&
1%
0$
#140000
b0 !
b1000 !
b1001 !
13
00
12
08
16
0&
1$
#150000
b1101 !
b1111 !
10
11
19
18
06
05
1'
1&
0$
0#
#160000
b1101 !
00
#170000
b101 !
b1 !
b11 !
10
01
02
09
08
16
15
0'
0&
1$
1#
#180000
b10 !
b110 !
03
11
19
06
05
1'
1&
0#
#190000
b1110 !
12
18
0$
#200000
b1111 !
b1011 !
13
01
#220000
b1001 !
b1 !
b101 !
00
11
02
08
16
0&
1$
#230000
b1 !
01
1:
09
17
15
04
0(
0'
0%
1#
0"
#240000
b0 !
b10 !
b1010 !
b1110 !
03
10
11
12
0:
19
18
07
06
05
14
1(
1'
1&
1%
0$
0#
1"
#250000
b1111 !
b1011 !
13
01
#260000
b1001 !
00
09
08
16
15
0'
0&
1$
1#
#270000
b1000 !
b1100 !
b1110 !
03
10
11
19
18
06
05
1'
1&
0$
0#
#280000
b110 !
02
08
1$
#290000
b111 !
b101 !
b1101 !
13
00
12
18
0$
#300000
b1111 !
b111 !
10
02
09
08
17
16
15
04
0(
0'
0&
0%
1$
1#
#310000
b1111 !
12
19
18
07
06
05
14
1(
1'
1&
1%
0$
0#
#320000
b1011 !
b1010 !
b1000 !
b0 !
03
00
01
02
09
08
04
0(
1$
1#
#330000
b100 !
b101 !
b111 !
b1111 !
13
10
11
12
19
18
14
1(
0$
0#
#340000
b1011 !
b1001 !
00
01
09
08
16
15
0'
0&
1$
1#
#350000
b1 !
b11 !
10
02
#360000
b10 !
b0 !
03
00
06
05
04
0(
1'
1&
#370000
b1000 !
12
14
1(
#380000
b1010 !
10
19
18
0$
0#
#390000
b1011 !
b11 !
13
02
09
08
16
15
0'
0&
1$
1#
#400000
b111 !
b110 !
b1110 !
03
11
12
19
18
06
05
1'
1&
0$
0#
#410000
b1100 !
b1101 !
b101 !
13
00
02
08
16
0&
1$
#420000
b1 !
b0 !
b1000 !
03
01
12
09
06
1&
1#
#440000
b1100 !
b1101 !
b101 !
13
11
02
19
16
0&
0#
#450000
b111 !
10
09
17
15
04
0(
0'
0%
1#
#460000
b11 !
01
07
14
1(
1%
#470000
b10 !
b1010 !
b1110 !
03
11
12
19
18
06
05
1'
1&
0$
0#
#480000
b1111 !
13
#490000
b1011 !
b1010 !
03
01
#500000
b1110 !
b1111 !
13
11
#510000
b1101 !
00
#520000
b101 !
b111 !
10
02
09
08
17
16
15
04
0(
0'
0&
0%
1$
1#
#540000
b110 !
b100 !
03
00
1:
05
14
1(
1'
0"
#550000
b0 !
b1000 !
b1001 !
b1011 !
13
10
01
12
0:
19
18
07
06
1&
1%
0$
0#
1"
#560000
b11 !
b10 !
b0 !
03
00
02
09
08
04
0(
1$
1#
#570000
b100 !
b1100 !
b1101 !
13
11
12
19
18
14
1(
0$
0#
#580000
b1111 !
b1011 !
b1010 !
03
10
01
#590000
b1000 !
b1100 !
00
11
#600000
b100 !
b101 !
b111 !
13
10
02
09
08
17
16
15
04
0(
0'
0&
0%
1$
1#
#610000
b1111 !
12
19
18
07
06
05
14
1(
1'
1&
1%
0$
0#
#620000
b1011 !
b1010 !
b10 !
03
01
02
09
15
0'
1#
#630000
b0 !
b100 !
00
11
1:
08
17
16
05
1'
0&
0%
1$
0"
#640000
b110 !
10
0:
19
07
06
1&
1%
0#
1"
#650000
b111 !
b11 !
b1 !
13
00
01
1:
09
17
16
15
04
0(
0'
0&
0%
1#
0"
#660000
b0 !
03
0:
07
06
05
1'
1&
1%
1"
#670000
b1000 !
12
14
1(
#680000
b1010 !
10
19
18
0$
0#
#690000
b1110 !
b1111 !
b111 !
b101 !
13
00
11
02
08
16
0&
1$
#700000
b1 !
b1001 !
b1011 !
10
01
12
18
06
1&
0$
#710000
b1010 !
03
#720000
b1000 !
b1001 !
13
00
09
08
16
15
0'
0&
1$
1#
#730000
b1101 !
b101 !
11
02
19
05
1'
0#
#740000
b111 !
10
09
17
15
04
0(
0'
0%
1#
#750000
b110 !
b1110 !
b1100 !
03
00
12
19
18
07
06
05
14
1(
1'
1&
1%
0$
0#
#760000
b1000 !
b0 !
01
02
09
08
04
0(
1$
1#
#770000
b10 !
b110 !
b1110 !
10
11
12
19
18
14
1(
0$
0#
#780000
b1010 !
b10 !
01
02
09
15
0'
1#
#790000
b0 !
b100 !
b1100 !
00
11
12
19
05
1'
0#
#800000
b1101 !
b101 !
13
02
08
16
0&
1$
#810000
b1 !
01
1:
09
17
15
04
0(
0'
0%
1#
0"
#830000
b0 !
b1000 !
b1100 !
03
11
12
0:
19
18
07
06
05
14
1(
1'
1&
1%
0$
0#
1"
#840000
b1101 !
b101 !
13
02
08
16
0&
1$
#850000
b100 !
03
1:
09
17
0%
1#
0"
#860000
b110 !
b10 !
10
01
0:
18
07
06
15
0'
1&
1%
0$
1"
#870000
b1010 !
12
19
05
1'
0#
#880000
b1000 !
00
09
08
1$
1#
#890000
b1001 !
b1011 !
13
10
19
18
0$
0#
#900000
b11 !
02
09
08
16
15
0'
0&
1$
1#
#910000
b1 !
b1001 !
00
12
#920000
b1101 !
11
19
18
06
05
1'
1&
0$
0#
#930000
b1111 !
10
#940000
b1110 !
b1010 !
03
01
#950000
b10 !
b0 !
b1 !
13
00
02
1:
09
08
17
16
15
04
0(
0'
0&
0%
1$
1#
0"
#960000
b1001 !
b1011 !
b1010 !
03
10
12
0:
19
18
07
06
05
14
1(
1'
1&
1%
0$
0#
1"
#970000
b10 !
b11 !
13
02
09
08
16
15
0'
0&
1$
1#
#980000
b1 !
b1001 !
00
12
#990000
b1101 !
b1100 !
b1110 !
b110 !
03
10
11
02
19
06
05
1'
1&
0#
