intelFPGA_lite/clock(24hr)vhdl/simulation/qsim/clock_24hr.msim.vcd
$comment
	File created using the following command:
		vcd file clock_24hr.msim.vcd -direction
$end
$date
	Wed May 10 11:31:31 2023
$end
$version
	ModelSim Version 10.5b
$end
$timescale
	1ps
$end

$scope module clock_24hr_vlg_vec_tst $end
$var reg 1 ! clk $end
$var reg 1 " rst $end
$var wire 1 # count_6 [3] $end
$var wire 1 $ count_6 [2] $end
$var wire 1 % count_6 [1] $end
$var wire 1 & count_6 [0] $end
$var wire 1 ' count_10 [3] $end
$var wire 1 ( count_10 [2] $end
$var wire 1 ) count_10 [1] $end
$var wire 1 * count_10 [0] $end
$var wire 1 + h_2 [3] $end
$var wire 1 , h_2 [2] $end
$var wire 1 - h_2 [1] $end
$var wire 1 . h_2 [0] $end
$var wire 1 / h_4 [3] $end
$var wire 1 0 h_4 [2] $end
$var wire 1 1 h_4 [1] $end
$var wire 1 2 h_4 [0] $end
$var wire 1 3 m_6 [3] $end
$var wire 1 4 m_6 [2] $end
$var wire 1 5 m_6 [1] $end
$var wire 1 6 m_6 [0] $end
$var wire 1 7 m_10 [3] $end
$var wire 1 8 m_10 [2] $end
$var wire 1 9 m_10 [1] $end
$var wire 1 : m_10 [0] $end
$var wire 1 ; mul_out [3] $end
$var wire 1 < mul_out [2] $end
$var wire 1 = mul_out [1] $end
$var wire 1 > mul_out [0] $end
$var wire 1 ? seg [7] $end
$var wire 1 @ seg [6] $end
$var wire 1 A seg [5] $end
$var wire 1 B seg [4] $end
$var wire 1 C seg [3] $end
$var wire 1 D seg [2] $end
$var wire 1 E seg [1] $end
$var wire 1 F seg [0] $end
$var wire 1 G sel [2] $end
$var wire 1 H sel [1] $end
$var wire 1 I sel [0] $end

$scope module i1 $end
$var wire 1 J gnd $end
$var wire 1 K vcc $end
$var wire 1 L unknown $end
$var tri1 1 M devclrn $end
$var tri1 1 N devpor $end
$var tri1 1 O devoe $end
$var wire 1 P ~QUARTUS_CREATED_GND~I_combout $end
$var wire 1 Q clk~input_o $end
$var wire 1 R clk~inputCLKENA0_outclk $end
$var wire 1 S tmp[0]~2_combout $end
$var wire 1 T tmp[0]~DUPLICATE_q $end
$var wire 1 U tmp~1_combout $end
$var wire 1 V tmp~0_combout $end
$var wire 1 W sel~0_combout $end
$var wire 1 X dp~0_combout $end
$var wire 1 Y sel[0]~reg0_q $end
$var wire 1 Z tmp[1]~DUPLICATE_q $end
$var wire 1 [ sel[1]~2_combout $end
$var wire 1 \ sel[1]~reg0_q $end
$var wire 1 ] sel~1_combout $end
$var wire 1 ^ sel[2]~reg0_q $end
$var wire 1 _ Add0~17_sumout $end
$var wire 1 ` Add0~10 $end
$var wire 1 a Add0~5_sumout $end
$var wire 1 b rst~input_o $end
$var wire 1 c Add0~6 $end
$var wire 1 d Add0~1_sumout $end
$var wire 1 e Add0~2 $end
$var wire 1 f Add0~21_sumout $end
$var wire 1 g Add0~22 $end
$var wire 1 h Add0~29_sumout $end
$var wire 1 i Add0~30 $end
$var wire 1 j Add0~25_sumout $end
$var wire 1 k Equal0~0_combout $end
$var wire 1 l Equal0~1_combout $end
$var wire 1 m Add0~18 $end
$var wire 1 n Add0~13_sumout $end
$var wire 1 o Add0~14 $end
$var wire 1 p Add0~9_sumout $end
$var wire 1 q cnt~0_combout $end
$var wire 1 r cnt~feeder_combout $end
$var wire 1 s cnt~q $end
$var wire 1 t h_4[0]~4_combout $end
$var wire 1 u count_10[0]~3_combout $end
$var wire 1 v count_10[0]~reg0_q $end
$var wire 1 w count_10~0_combout $end
$var wire 1 x count_10[1]~reg0_q $end
$var wire 1 y count_10[2]~1_combout $end
$var wire 1 z count_10[2]~reg0_q $end
$var wire 1 { count_10~2_combout $end
$var wire 1 | count_10[3]~reg0_q $end
$var wire 1 } Equal2~0_combout $end
$var wire 1 ~ count_6[2]~reg0_q $end
$var wire 1 !! count_6[0]~3_combout $end
$var wire 1 "! count_6[0]~reg0_q $end
$var wire 1 #! count_6~0_combout $end
$var wire 1 $! count_6[1]~reg0_q $end
$var wire 1 %! count_6[3]~2_combout $end
$var wire 1 &! count_6[3]~reg0_q $end
$var wire 1 '! count_6~1_combout $end
$var wire 1 (! count_6[2]~reg0DUPLICATE_q $end
$var wire 1 )! always1~0_combout $end
$var wire 1 *! m_10[0]~3_combout $end
$var wire 1 +! always1~3_combout $end
$var wire 1 ,! m_10[0]~reg0_q $end
$var wire 1 -! m_10[1]~reg0_q $end
$var wire 1 .! m_10[2]~reg0DUPLICATE_q $end
$var wire 1 /! m_10~0_combout $end
$var wire 1 0! m_10[1]~reg0DUPLICATE_q $end
$var wire 1 1! m_10[2]~1_combout $end
$var wire 1 2! m_10[2]~reg0_q $end
$var wire 1 3! m_10~2_combout $end
$var wire 1 4! m_10[3]~reg0_q $end
$var wire 1 5! Equal3~0_combout $end
$var wire 1 6! m_6[0]~4_combout $end
$var wire 1 7! h_4[0]~3_combout $end
$var wire 1 8! m_6[0]~reg0_q $end
$var wire 1 9! m_6[1]~reg0DUPLICATE_q $end
$var wire 1 :! m_6~1_combout $end
$var wire 1 ;! m_6[2]~reg0_q $end
$var wire 1 <! m_6~0_combout $end
$var wire 1 =! m_6[1]~reg0_q $end
$var wire 1 >! m_6[3]~2_combout $end
$var wire 1 ?! m_6[3]~reg0_q $end
$var wire 1 @! m_6[3]~3_combout $end
$var wire 1 A! m_6[3]~reg0feeder_combout $end
$var wire 1 B! m_6[3]~reg0DUPLICATE_q $end
$var wire 1 C! Equal4~0_combout $end
$var wire 1 D! h_2[0]~0_combout $end
$var wire 1 E! h_4[0]~reg0_q $end
$var wire 1 F! h_2[0]~reg0DUPLICATE_q $end
$var wire 1 G! Equal7~0_combout $end
$var wire 1 H! h_2[2]~4_combout $end
$var wire 1 I! h_2[2]~reg0_q $end
$var wire 1 J! h_2[1]~2_combout $end
$var wire 1 K! h_2[1]~reg0_q $end
$var wire 1 L! always1~1_combout $end
$var wire 1 M! h_4~1_combout $end
$var wire 1 N! h_4[2]~reg0_q $end
$var wire 1 O! always1~2_combout $end
$var wire 1 P! h_2[0]~1_combout $end
$var wire 1 Q! h_2[0]~reg0_q $end
$var wire 1 R! h_2[2]~3_combout $end
$var wire 1 S! h_2[3]~5_combout $end
$var wire 1 T! h_2[3]~reg0_q $end
$var wire 1 U! h_4~0_combout $end
$var wire 1 V! h_4[1]~reg0_q $end
$var wire 1 W! h_4~2_combout $end
$var wire 1 X! h_4[3]~reg0_q $end
$var wire 1 Y! mul_out~6_combout $end
$var wire 1 Z! mul_out~7_combout $end
$var wire 1 [! mul_out[3]~reg0_q $end
$var wire 1 \! mul_out~0_combout $end
$var wire 1 ]! mul_out~1_combout $end
$var wire 1 ^! mul_out[0]~reg0_q $end
$var wire 1 _! mul_out~4_combout $end
$var wire 1 `! mul_out~5_combout $end
$var wire 1 a! mul_out[2]~reg0_q $end
$var wire 1 b! mul_out~2_combout $end
$var wire 1 c! mul_out~3_combout $end
$var wire 1 d! mul_out[1]~reg0_q $end
$var wire 1 e! seg~0_combout $end
$var wire 1 f! WideOr5~0_combout $end
$var wire 1 g! WideOr4~0_combout $end
$var wire 1 h! WideOr3~0_combout $end
$var wire 1 i! WideOr2~0_combout $end
$var wire 1 j! WideOr1~0_combout $end
$var wire 1 k! WideOr0~0_combout $end
$var wire 1 l! dp~1_combout $end
$var wire 1 m! dp~q $end
$var wire 1 n! m_10[3]~reg0DUPLICATE_q $end
$var wire 1 o! count [7] $end
$var wire 1 p! count [6] $end
$var wire 1 q! count [5] $end
$var wire 1 r! count [4] $end
$var wire 1 s! count [3] $end
$var wire 1 t! count [2] $end
$var wire 1 u! count [1] $end
$var wire 1 v! count [0] $end
$var wire 1 w! tmp [2] $end
$var wire 1 x! tmp [1] $end
$var wire 1 y! tmp [0] $end
$upscope $end
$upscope $end
$enddefinitions $end
#0
$dumpvars
0!
1"
0&
0%
0$
0#
0*
0)
0(
0'
0.
0-
0,
0+
02
01
00
0/
06
05
04
03
0:
09
08
07
0>
0=
0<
0;
1F
1E
1D
1C
1B
1A
0@
0?
0I
0H
0G
0J
1K
xL
1M
1N
1O
0P
0Q
0R
1S
0T
0U
0V
0W
1X
0Y
0Z
1[
0\
1]
0^
1_
0`
0a
1b
0c
0d
0e
0f
0g
0h
0i
0j
0k
0l
0m
0n
0o
0p
0q
0r
0s
1t
1u
0v
0w
0x
0y
0z
0{
0|
0}
0~
1!!
0"!
0#!
0$!
0%!
0&!
0'!
0(!
0)!
1*!
0+!
0,!
0-!
0.!
0/!
00!
01!
02!
03!
04!
05!
16!
07!
08!
09!
0:!
0;!
0<!
0=!
0>!
0?!
0@!
0A!
0B!
0C!
0D!
0E!
0F!
0G!
0H!
0I!
0J!
0K!
0L!
0M!
0N!
0O!
0P!
0Q!
0R!
0S!
0T!
0U!
0V!
0W!
0X!
0Y!
0Z!
0[!
0\!
0]!
0^!
0_!
0`!
0a!
0b!
0c!
0d!
0e!
0f!
0g!
0h!
0i!
0j!
0k!
1l!
0m!
0n!
0v!
0u!
0t!
0s!
0r!
0q!
0p!
0o!
0y!
0x!
0w!
$end
#50
1!
1Q
1R
1v!
1T
1y!
1m!
1^
1\
1H
1G
1?
1m
0l!
1V
0S
1W
0_
1n
#100
0!
0Q
0R
#150
1!
1Q
1R
1u!
0v!
1Z
1x!
0T
0y!
0m!
1Y
1I
0?
0m
1o
1l!
1S
0[
1_
0n
0o
1n
1p
0p
#200
0!
0Q
0R
#250
1!
1Q
1R
1v!
1T
1y!
1m!
0\
0H
1?
1U
1m
0l!
0V
0S
0W
0_
1o
0n
1p
#300
0!
0Q
0R
#350
1!
1Q
1R
1t!
0u!
0v!
0Z
0x!
1w!
0T
0y!
0m!
0Y
0I
0?
0m
0o
1`
1l!
1S
1W
0]
1[
1_
1n
0p
0`
0n
1p
1a
0a
#400
0!
0Q
0R
#450
1!
1Q
1R
1v!
1T
1y!
1m!
0^
1\
1Y
1I
1H
0G
1?
0U
1m
0l!
0S
0W
0_
1n
#500
0!
0Q
0R
#550
1!
1Q
1R
1u!
0v!
0w!
0T
0y!
0m!
0Y
0I
0?
0m
1o
1l!
1S
1]
1_
0n
0o
1`
1n
0p
0`
1p
1a
0a
#600
0!
0Q
0R
#650
1!
1Q
1R
1v!
1T
1y!
1m!
1^
1G
1?
1m
0l!
1V
0S
1W
0_
1o
0n
1`
0p
1a
#700
0!
0Q
0R
#750
1!
1Q
1R
0t!
0u!
0v!
1s!
1Z
1x!
0T
0y!
0m!
1Y
1I
0?
1c
0m
0o
0`
1l!
1S
0[
0a
1_
1n
1p
0c
1d
0n
0p
1a
0d
#800
0!
0Q
0R
#850
1!
1Q
1R
1v!
1T
1y!
1m!
0\
0H
1?
1U
1m
0l!
0V
0S
0W
0_
1n
#900
0!
0Q
0R
#950
1!
1Q
1R
1u!
0v!
0Z
0x!
1w!
0T
0y!
0m!
0Y
0I
0?
0m
1o
1l!
1S
1W
0]
1[
1_
0n
0o
1n
1p
0p
#1000
0!
0Q
0R
#1050
1!
1Q
1R
1v!
1T
1y!
1m!
0^
1\
1Y
1I
1H
0G
1?
0U
1m
0l!
0S
0W
0_
1o
0n
1p
#1100
0!
0Q
0R
#1150
1!
1Q
1R
1t!
0u!
0v!
0w!
0T
0y!
0m!
0Y
0I
0?
0m
0o
1`
1l!
1S
1]
1_
1n
0p
0`
1c
0n
1p
0a
0c
1a
1d
0d
#1200
0!
0Q
0R
#1250
1!
1Q
1R
1v!
1T
1y!
1m!
1^
1G
1?
1m
0l!
1V
0S
1W
0_
1n
#1300
0!
0Q
0R
#1350
1!
1Q
1R
1u!
0v!
1Z
1x!
0T
0y!
0m!
1Y
1I
0?
0m
1o
1l!
1S
0[
1_
0n
0o
1`
1n
0p
0`
1c
1p
0a
0c
1a
1d
0d
#1400
0!
0Q
0R
#1450
1!
1Q
1R
1v!
1T
1y!
1m!
0\
0H
1?
1U
1m
0l!
0V
0S
0W
0_
1o
0n
1`
0p
1c
0a
1d
#1500
0!
0Q
0R
#1550
1!
1Q
1R
0t!
0u!
0v!
1r!
0s!
0Z
0x!
1w!
0T
0y!
0m!
0Y
0I
0?
0c
1e
0m
0o
0`
1l!
1S
1W
0]
1[
1a
0d
1_
1n
1p
0e
1d
1f
0n
0p
0a
0f
#1600
0!
0Q
0R
#1650
1!
1Q
1R
1v!
1T
1y!
1m!
0^
1\
1Y
1I
1H
0G
1?
0U
1m
0l!
0S
0W
0_
1n
#1700
0!
0Q
0R
#1750
1!
1Q
1R
1u!
0v!
0w!
0T
0y!
0m!
0Y
0I
0?
0m
1o
1l!
1S
1]
1_
0n
0o
1n
1p
0p
#1800
0!
0Q
0R
#1850
1!
1Q
1R
1v!
1T
1y!
1m!
1^
1G
1?
1m
0l!
1V
0S
1W
0_
1o
0n
1p
#1900
0!
0Q
0R
#1950
1!
1Q
1R
1t!
0u!
0v!
1Z
1x!
0T
0y!
0m!
1Y
1I
0?
0m
0o
1`
1l!
1S
0[
1_
1n
0p
0`
0n
1p
1a
0a
#2000
0!
0Q
0R
#2050
1!
1Q
1R
1v!
1T
1y!
1m!
0\
0H
1?
1U
1m
0l!
0V
0S
0W
0_
1n
#2100
0!
0Q
0R
#2150
1!
1Q
1R
1u!
0v!
0Z
0x!
1w!
0T
0y!
0m!
0Y
0I
0?
0m
1o
1l!
1S
1W
0]
1[
1_
0n
0o
1`
1n
0p
0`
1p
1a
0a
#2200
0!
0Q
0R
#2250
1!
1Q
1R
1v!
1T
1y!
1m!
0^
1\
1Y
1I
1H
0G
1?
0U
1m
0l!
0S
0W
0_
1o
0n
1`
0p
1a
#2300
0!
0Q
0R
#2350
1!
1Q
1R
0t!
0u!
0v!
1s!
0w!
0T
0y!
0m!
0Y
0I
0?
1c
0m
0o
0`
1l!
1S
1]
0a
1_
1n
1p
1e
0c
0d
0n
0p
1a
0e
1f
1d
0f
#2400
0!
0Q
0R
#2450
1!
1Q
1R
1v!
1T
1y!
1m!
1^
1G
1?
1m
0l!
1V
0S
1W
0_
1n
#2500
0!
0Q
0R
#2550
1!
1Q
1R
1u!
0v!
1Z
1x!
0T
0y!
0m!
1Y
1I
0?
0m
1o
1l!
1S
0[
1_
0n
0o
1n
1p
0p
#2600
0!
0Q
0R
#2650
1!
1Q
1R
1v!
1T
1y!
1m!
0\
0H
1?
1U
1m
0l!
0V
0S
0W
0_
1o
0n
1p
#2700
0!
0Q
0R
#2750
1!
1Q
1R
1t!
0u!
0v!
0Z
0x!
1w!
0T
0y!
0m!
0Y
0I
0?
0m
0o
1`
1l!
1S
1W
0]
1[
1_
1n
0p
0`
1c
0n
1p
0a
0c
1e
1a
0d
0e
1d
1f
0f
#2800
0!
0Q
0R
#2850
1!
1Q
1R
1v!
1T
1y!
1m!
0^
1\
1Y
1I
1H
0G
1?
0U
1m
0l!
0S
0W
0_
1n
#2900
0!
0Q
0R
#2950
1!
1Q
1R
1u!
0v!
0w!
0T
0y!
0m!
0Y
0I
0?
0m
1o
1l!
1S
1]
1_
0n
0o
1`
1n
0p
0`
1c
1p
0a
0c
1e
1a
0d
0e
1d
1f
0f
#3000
0!
0Q
0R
#3050
1!
1Q
1R
1v!
1T
1y!
1m!
1^
1G
1?
1m
0l!
1V
0S
1W
0_
1o
0n
1`
0p
1c
0a
1e
0d
1f
#3100
0!
0Q
0R
#3150
1!
1Q
1R
0t!
0u!
0v!
1q!
0r!
0s!
1Z
1x!
0T
0y!
0m!
1Y
1I
0?
0c
0e
1g
0m
0o
0`
1l!
1S
0[
1a
1d
0f
1_
1n
1p
0g
0d
1f
1h
0n
0p
0a
0h
#3200
0!
0Q
0R
#3250
1!
1Q
1R
1v!
1T
1y!
1m!
0\
0H
1?
1U
1k
1m
0l!
0V
0S
0W
0_
1n
#3300
0!
0Q
0R
#3350
1!
1Q
1R
1u!
0v!
0Z
0x!
1w!
0T
0y!
0m!
0Y
0I
0?
0k
0m
1o
1l!
1S
1W
0]
1[
1_
0n
0o
1n
1p
0p
#3400
0!
0Q
0R
#3450
1!
1Q
1R
1v!
1T
1y!
1m!
0^
1\
1Y
1I
1H
0G
1?
0U
1m
0l!
0S
0W
0_
1o
0n
1p
#3500
0!
0Q
0R
#3550
1!
1Q
1R
1t!
0u!
0v!
0w!
0T
0y!
0m!
0Y
0I
0?
0m
0o
1`
1l!
1S
1]
1_
1n
0p
0`
0n
1p
1a
0a
#3600
0!
0Q
0R
#3650
1!
1Q
1R
1v!
1T
1y!
1m!
1^
1G
1?
1k
1m
0l!
1V
0S
1W
0_
1n
#3700
0!
0Q
0R
#3750
1!
1Q
1R
1u!
0v!
1Z
1x!
0T
0y!
0m!
1Y
1I
0?
0k
0m
1o
1l!
1S
0[
1_
0n
0o
1`
1n
0p
0`
1p
1a
0a
#3800
0!
0Q
0R
#3850
1!
1Q
1R
1v!
1T
1y!
1m!
0\
0H
1?
1U
1m
0l!
0V
0S
0W
0_
1o
0n
1`
0p
1a
#3900
0!
0Q
0R
#3950
1!
1Q
1R
0t!
0u!
0v!
1s!
0Z
0x!
1w!
0T
0y!
0m!
0Y
0I
0?
1c
0m
0o
0`
1l!
1S
1W
0]
1[
0a
1_
1n
1p
0c
1d
0n
0p
1a
0d
#4000
0!
0Q
0R
#4050
1!
1Q
1R
1v!
1T
1y!
1m!
0^
1\
1Y
1I
1H
0G
1?
0U
1k
1m
0l!
0S
0W
0_
1n
#4100
0!
0Q
0R
#4150
1!
1Q
1R
1u!
0v!
0w!
0T
0y!
0m!
0Y
0I
0?
0k
0m
1o
1l!
1S
1]
1_
0n
0o
1n
1p
0p
#4200
0!
0Q
0R
#4250
1!
1Q
1R
1v!
1T
1y!
1m!
1^
1G
1?
1m
0l!
1V
0S
1W
0_
1o
0n
1p
#4300
0!
0Q
0R
#4350
1!
1Q
1R
1t!
0u!
0v!
1Z
1x!
0T
0y!
0m!
1Y
1I
0?
0m
0o
1`
1l!
1S
0[
1_
1n
0p
0`
1c
0n
1p
0a
0c
1a
1d
0d
#4400
0!
0Q
0R
#4450
1!
1Q
1R
1v!
1T
1y!
1m!
0\
0H
1?
1U
1k
1m
0l!
0V
0S
0W
0_
1n
#4500
0!
0Q
0R
#4550
1!
1Q
1R
1u!
0v!
0Z
0x!
1w!
0T
0y!
0m!
0Y
0I
0?
0k
0m
1o
1l!
1S
1W
0]
1[
1_
0n
0o
1`
1n
0p
0`
1c
1p
0a
0c
1a
1d
0d
#4600
0!
0Q
0R
#4650
1!
1Q
1R
1v!
1T
1y!
1m!
0^
1\
1Y
1I
1H
0G
1?
0U
1m
0l!
0S
0W
0_
1o
0n
1`
0p
1c
0a
1d
#4700
0!
0Q
0R
#4750
1!
1Q
1R
0t!
0u!
0v!
1r!
0s!
0w!
0T
0y!
0m!
0Y
0I
0?
0c
1e
0m
0o
0`
1l!
1S
1]
1a
0d
1_
1n
1p
0e
1g
1d
0f
0n
0p
0a
0g
1f
1h
0h
#4800
0!
0Q
0R
#4850
1!
1Q
1R
1v!
1T
1y!
1m!
1^
1G
1?
1k
1m
0l!
1V
0S
1W
0_
1q
1l
1n
1r
#4900
0!
0Q
0R
#4950
1!
1Q
1R
0v!
0q!
0r!
1Z
1x!
0T
0y!
1s
0m!
1Y
1I
0?
0l
0k
0m
1l!
1S
0[
0d
0f
1_
0n
1v
1*
1w
0u
#5000
0!
0Q
0R
#5050
1!
1Q
1R
1v!
1T
1y!
1m!
0\
0H
1?
1\!
1U
1m
0l!
0V
0S
0W
0_
1n
#5100
0!
0Q
0R
#5150
1!
1Q
1R
1u!
0v!
0Z
0x!
1w!
0T
0y!
0m!
0Y
0I
0?
0\!
0m
1o
1l!
1S
1]!
1W
0]
1[
1_
0n
0o
1n
1p
0]!
0p
#5200
0!
0Q
0R
#5250
1!
1Q
1R
1v!
1T
1y!
1m!
0^
1\
1Y
1I
1H
0G
1?
0U
1m
0l!
0S
0W
0_
1o
0n
1p
#5300
0!
0Q
0R
#5350
1!
1Q
1R
1t!
0u!
0v!
0w!
0T
0y!
0m!
0Y
0I
0?
0m
0o
1`
1l!
1S
1]
1_
1n
0p
0`
0n
1p
1a
0a
#5400
0!
0Q
0R
#5450
1!
1Q
1R
1v!
1T
1y!
1m!
1^
1G
1?
1\!
1m
0l!
1V
0S
1W
0_
1n
1]!
#5500
0!
0Q
0R
#5550
1!
1Q
1R
1u!
0v!
1Z
1x!
0T
0y!
0m!
1^!
1Y
1I
1>
0?
0\!
0m
1o
1j!
1i!
1h!
1e!
1l!
1S
0]!
0[
1_
0n
0F
0C
0B
0A
0o
1`
1n
0p
0`
1p
1a
0a
#5600
0!
0Q
0R
#5650
1!
1Q
1R
1v!
1T
1y!
1m!
0^!
0\
0H
0>
1?
1\!
1U
1m
0j!
0i!
0h!
0e!
0l!
0V
0S
0W
0_
1F
1C
1B
1A
1o
0n
1`
0p
1a
#5700
0!
0Q
0R
#5750
1!
1Q
1R
0t!
0u!
0v!
1s!
0Z
0x!
1w!
0T
0y!
0m!
0Y
0I
0?
0\!
1c
0m
0o
0`
1l!
1S
1]!
1W
0]
1[
0a
1_
1n
1p
0c
1d
0n
0p
1a
0]!
0d
#5800
0!
0Q
0R
#5850
1!
1Q
1R
1v!
1T
1y!
1m!
0^
1\
1Y
1I
1H
0G
1?
0U
1m
0l!
0S
0W
0_
1n
#5900
0!
0Q
0R
#5950
1!
1Q
1R
1u!
0v!
0w!
0T
0y!
0m!
0Y
0I
0?
0m
1o
1l!
1S
1]
1_
0n
0o
1n
1p
0p
#6000
0!
0Q
0R
#6050
1!
1Q
1R
1v!
1T
1y!
1m!
1^
1G
1?
1\!
1m
0l!
1V
0S
1W
0_
1o
0n
1]!
1p
#6100
0!
0Q
0R
#6150
1!
1Q
1R
1t!
0u!
0v!
1Z
1x!
0T
0y!
0m!
1^!
1Y
1I
1>
0?
0\!
0m
0o
1`
1j!
1i!
1h!
1e!
1l!
1S
0]!
0[
1_
1n
0p
0F
0C
0B
0A
0`
1c
0n
1p
0a
0c
1a
1d
0d
#6200
0!
0Q
0R
#6250
1!
1Q
1R
1v!
1T
1y!
1m!
0^!
0\
0H
0>
1?
1\!
1U
1m
0j!
0i!
0h!
0e!
0l!
0V
0S
0W
0_
1F
1C
1B
1A
1n
#6300
0!
0Q
0R
#6350
1!
1Q
1R
1u!
0v!
0Z
0x!
1w!
0T
0y!
0m!
0Y
0I
0?
0\!
0m
1o
1l!
1S
1]!
1W
0]
1[
1_
0n
0o
1`
1n
0p
0]!
0`
1c
1p
0a
0c
1a
1d
0d
#6400
0!
0Q
0R
#6450
1!
1Q
1R
1v!
1T
1y!
1m!
0^
1\
1Y
1I
1H
0G
1?
0U
1m
0l!
0S
0W
0_
1o
0n
1`
0p
1c
0a
1d
#6500
0!
0Q
0R
#6550
1!
1Q
1R
0t!
0u!
0v!
1r!
0s!
0w!
0T
0y!
0m!
0Y
0I
0?
0c
1e
0m
0o
0`
1l!
1S
1]
1a
0d
1_
1n
1p
0e
1d
1f
0n
0p
0a
0f
#6600
0!
0Q
0R
#6650
1!
1Q
1R
1v!
1T
1y!
1m!
1^
1G
1?
1\!
1m
0l!
1V
0S
1W
0_
1n
1]!
#6700
0!
0Q
0R
#6750
1!
1Q
1R
1u!
0v!
1Z
1x!
0T
0y!
0m!
1^!
1Y
1I
1>
0?
0\!
0m
1o
1j!
1i!
1h!
1e!
1l!
1S
0]!
0[
1_
0n
0F
0C
0B
0A
0o
1n
1p
0p
#6800
0!
0Q
0R
#6850
1!
1Q
1R
1v!
1T
1y!
1m!
0^!
0\
0H
0>
1?
1\!
1U
1m
0j!
0i!
0h!
0e!
0l!
0V
0S
0W
0_
1F
1C
1B
1A
1o
0n
1p
#6900
0!
0Q
0R
#6950
1!
1Q
1R
1t!
0u!
0v!
0Z
0x!
1w!
0T
0y!
0m!
0Y
0I
0?
0\!
0m
0o
1`
1l!
1S
1]!
1W
0]
1[
1_
1n
0p
0`
0n
1p
1a
0]!
0a
#7000
0!
0Q
0R
#7050
1!
1Q
1R
1v!
1T
1y!
1m!
0^
1\
1Y
1I
1H
0G
1?
0U
1m
0l!
0S
0W
0_
1n
#7100
0!
0Q
0R
#7150
1!
1Q
1R
1u!
0v!
0w!
0T
0y!
0m!
0Y
0I
0?
0m
1o
1l!
1S
1]
1_
0n
0o
1`
1n
0p
0`
1p
1a
0a
#7200
0!
0Q
0R
#7250
1!
1Q
1R
1v!
1T
1y!
1m!
1^
1G
1?
1\!
1m
0l!
1V
0S
1W
0_
1o
0n
1]!
1`
0p
1a
#7300
0!
0Q
0R
#7350
1!
1Q
1R
0t!
0u!
0v!
1s!
1Z
1x!
0T
0y!
0m!
1^!
1Y
1I
1>
0?
0\!
1c
0m
0o
0`
1j!
1i!
1h!
1e!
1l!
1S
0]!
0[
0a
1_
1n
1p
0F
0C
0B
0A
1e
0c
0d
0n
0p
1a
0e
1f
1d
0f
#7400
0!
0Q
0R
#7450
1!
1Q
1R
1v!
1T
1y!
1m!
0^!
0\
0H
0>
1?
1\!
1U
1m
0j!
0i!
0h!
0e!
0l!
0V
0S
0W
0_
1F
1C
1B
1A
1n
#7500
0!
0Q
0R
#7550
1!
1Q
1R
1u!
0v!
0Z
0x!
1w!
0T
0y!
0m!
0Y
0I
0?
0\!
0m
1o
1l!
1S
1]!
1W
0]
1[
1_
0n
0o
1n
1p
0]!
0p
#7600
0!
0Q
0R
#7650
1!
1Q
1R
1v!
1T
1y!
1m!
0^
1\
1Y
1I
1H
0G
1?
0U
1m
0l!
0S
0W
0_
1o
0n
1p
#7700
0!
0Q
0R
#7750
1!
1Q
1R
1t!
0u!
0v!
0w!
0T
0y!
0m!
0Y
0I
0?
0m
0o
1`
1l!
1S
1]
1_
1n
0p
0`
1c
0n
1p
0a
0c
1e
1a
0d
0e
1d
1f
0f
#7800
0!
0Q
0R
#7850
1!
1Q
1R
1v!
1T
1y!
1m!
1^
1G
1?
1\!
1m
0l!
1V
0S
1W
0_
1n
1]!
#7900
0!
0Q
0R
#7950
1!
1Q
1R
1u!
0v!
1Z
1x!
0T
0y!
0m!
1^!
1Y
1I
1>
0?
0\!
0m
1o
1j!
1i!
1h!
1e!
1l!
1S
0]!
0[
1_
0n
0F
0C
0B
0A
0o
1`
1n
0p
0`
1c
1p
0a
0c
1e
1a
0d
0e
1d
1f
0f
#8000
0!
0Q
0R
#8050
1!
1Q
1R
1v!
1T
1y!
1m!
0^!
0\
0H
0>
1?
1\!
1U
1m
0j!
0i!
0h!
0e!
0l!
0V
0S
0W
0_
1F
1C
1B
1A
1o
0n
1`
0p
1c
0a
1e
0d
1f
#8100
0!
0Q
0R
#8150
1!
1Q
1R
0t!
0u!
0v!
1q!
0r!
0s!
0Z
0x!
1w!
0T
0y!
0m!
0Y
0I
0?
0\!
0c
0e
1g
0m
0o
0`
1l!
1S
1]!
1W
0]
1[
1a
1d
0f
1_
1n
1p
0g
0d
1f
1h
0n
0p
0a
0]!
0h
#8200
0!
0Q
0R
#8250
1!
1Q
1R
1v!
1T
1y!
1m!
0^
1\
1Y
1I
1H
0G
1?
0U
1k
1m
0l!
0S
0W
0_
1n
#8300
0!
0Q
0R
#8350
1!
1Q
1R
1u!
0v!
0w!
0T
0y!
0m!
0Y
0I
0?
0k
0m
1o
1l!
1S
1]
1_
0n
0o
1n
1p
0p
#8400
0!
0Q
0R
#8450
1!
1Q
1R
1v!
1T
1y!
1m!
1^
1G
1?
1\!
1m
0l!
1V
0S
1W
0_
1o
0n
1]!
1p
#8500
0!
0Q
0R
#8550
1!
1Q
1R
1t!
0u!
0v!
1Z
1x!
0T
0y!
0m!
1^!
1Y
1I
1>
0?
0\!
0m
0o
1`
1j!
1i!
1h!
1e!
1l!
1S
0]!
0[
1_
1n
0p
0F
0C
0B
0A
0`
0n
1p
1a
0a
#8600
0!
0Q
0R
#8650
1!
1Q
1R
1v!
1T
1y!
1m!
0^!
0\
0H
0>
1?
1\!
1U
1k
1m
0j!
0i!
0h!
0e!
0l!
0V
0S
0W
0_
1F
1C
1B
1A
1n
#8700
0!
0Q
0R
#8750
1!
1Q
1R
1u!
0v!
0Z
0x!
1w!
0T
0y!
0m!
0Y
0I
0?
0\!
0k
0m
1o
1l!
1S
1]!
1W
0]
1[
1_
0n
0o
1`
1n
0p
0]!
0`
1p
1a
0a
#8800
0!
0Q
0R
#8850
1!
1Q
1R
1v!
1T
1y!
1m!
0^
1\
1Y
1I
1H
0G
1?
0U
1m
0l!
0S
0W
0_
1o
0n
1`
0p
1a
#8900
0!
0Q
0R
#8950
1!
1Q
1R
0t!
0u!
0v!
1s!
0w!
0T
0y!
0m!
0Y
0I
0?
1c
0m
0o
0`
1l!
1S
1]
0a
1_
1n
1p
0c
1d
0n
0p
1a
0d
#9000
0!
0Q
0R
#9050
1!
1Q
1R
1v!
1T
1y!
1m!
1^
1G
1?
1\!
1k
1m
0l!
1V
0S
1W
0_
1n
1]!
#9100
0!
0Q
0R
#9150
1!
1Q
1R
1u!
0v!
1Z
1x!
0T
0y!
0m!
1^!
1Y
1I
1>
0?
0\!
0k
0m
1o
1j!
1i!
1h!
1e!
1l!
1S
0]!
0[
1_
0n
0F
0C
0B
0A
0o
1n
1p
0p
#9200
0!
0Q
0R
#9250
1!
1Q
1R
1v!
1T
1y!
1m!
0^!
0\
0H
0>
1?
1\!
1U
1m
0j!
0i!
0h!
0e!
0l!
0V
0S
0W
0_
1F
1C
1B
1A
1o
0n
1p
#9300
0!
0Q
0R
#9350
1!
1Q
1R
1t!
0u!
0v!
0Z
0x!
1w!
0T
0y!
0m!
0Y
0I
0?
0\!
0m
0o
1`
1l!
1S
1]!
1W
0]
1[
1_
1n
0p
0`
1c
0n
1p
0a
0]!
0c
1a
1d
0d
#9400
0!
0Q
0R
