intelFPGA_lite/FPGA_keyboard(ref)/simulation/qsim/hw7.msim.vcd
$comment
	File created using the following command:
		vcd file hw7.msim.vcd -direction
$end
$date
	Fri May 19 16:54:23 2023
$end
$version
	ModelSim Version 10.4b
$end
$timescale
	1ps
$end

$scope module hw7_vlg_vec_tst $end
$var reg 1 ! clk $end
$var reg 4 " row_out [3:0] $end
$var reg 1 # rst $end
$var wire 1 $ col_out [3] $end
$var wire 1 % col_out [2] $end
$var wire 1 & col_out [1] $end
$var wire 1 ' col_out [0] $end
$var wire 1 ( seg [7] $end
$var wire 1 ) seg [6] $end
$var wire 1 * seg [5] $end
$var wire 1 + seg [4] $end
$var wire 1 , seg [3] $end
$var wire 1 - seg [2] $end
$var wire 1 . seg [1] $end
$var wire 1 / seg [0] $end

$scope module i1 $end
$var wire 1 0 gnd $end
$var wire 1 1 vcc $end
$var wire 1 2 unknown $end
$var tri1 1 3 devclrn $end
$var tri1 1 4 devpor $end
$var tri1 1 5 devoe $end
$var wire 1 6 rst~input_o $end
$var wire 1 7 col_out[0]~output_o $end
$var wire 1 8 col_out[1]~output_o $end
$var wire 1 9 col_out[2]~output_o $end
$var wire 1 : col_out[3]~output_o $end
$var wire 1 ; seg[0]~output_o $end
$var wire 1 < seg[1]~output_o $end
$var wire 1 = seg[2]~output_o $end
$var wire 1 > seg[3]~output_o $end
$var wire 1 ? seg[4]~output_o $end
$var wire 1 @ seg[5]~output_o $end
$var wire 1 A seg[6]~output_o $end
$var wire 1 B seg[7]~output_o $end
$var wire 1 C clk~input_o $end
$var wire 1 D clk~inputclkctrl_outclk $end
$var wire 1 E row_out[0]~input_o $end
$var wire 1 F row_out[2]~input_o $end
$var wire 1 G row_out[1]~input_o $end
$var wire 1 H row_out[3]~input_o $end
$var wire 1 I mul_out~41_combout $end
$var wire 1 J S_row~feeder_combout $end
$var wire 1 K S_row~q $end
$var wire 1 L counter[0]~1_combout $end
$var wire 1 M counter[1]~0_combout $end
$var wire 1 N mul_out~40_combout $end
$var wire 1 O mul_out~40_wirecell_combout $end
$var wire 1 P col_out[0]~reg0_q $end
$var wire 1 Q col_out~0_combout $end
$var wire 1 R col_out[1]~reg0feeder_combout $end
$var wire 1 S col_out[1]~reg0_q $end
$var wire 1 T Equal1~0_combout $end
$var wire 1 U col_out[2]~reg0_q $end
$var wire 1 V Equal1~1_combout $end
$var wire 1 W col_out[3]~reg0_q $end
$var wire 1 X mul_out~44_combout $end
$var wire 1 Y mul_out~45_combout $end
$var wire 1 Z mul_out~46_combout $end
$var wire 1 [ mul_out.1101~q $end
$var wire 1 \ mul_out~42_combout $end
$var wire 1 ] mul_out~43_combout $end
$var wire 1 ^ mul_out.0100~q $end
$var wire 1 _ mul_out~47_combout $end
$var wire 1 ` mul_out~67_combout $end
$var wire 1 a mul_out.1011~q $end
$var wire 1 b mul_out.0001~1_combout $end
$var wire 1 c mul_out.0001~0_combout $end
$var wire 1 d mul_out.0001~2_combout $end
$var wire 1 e mul_out.0001~q $end
$var wire 1 f WideOr6~0_combout $end
$var wire 1 g mul_out~58_combout $end
$var wire 1 h mul_out~59_combout $end
$var wire 1 i mul_out~60_combout $end
$var wire 1 j mul_out.0110~0_combout $end
$var wire 1 k mul_out~61_combout $end
$var wire 1 l mul_out.0110~q $end
$var wire 1 m mul_out~53_combout $end
$var wire 1 n mul_out~54_combout $end
$var wire 1 o mul_out.1110~q $end
$var wire 1 p mul_out~51_combout $end
$var wire 1 q mul_out~50_combout $end
$var wire 1 r mul_out~52_combout $end
$var wire 1 s mul_out.1100~q $end
$var wire 1 t mul_out~55_combout $end
$var wire 1 u mul_out~56_combout $end
$var wire 1 v mul_out~57_combout $end
$var wire 1 w mul_out.1111~0_combout $end
$var wire 1 x mul_out.1111~q $end
$var wire 1 y mul_out~48_combout $end
$var wire 1 z mul_out~49_combout $end
$var wire 1 { mul_out.0101~q $end
$var wire 1 | WideOr5~0_combout $end
$var wire 1 } WideOr5~combout $end
$var wire 1 ~ mul_out.0010~0_combout $end
$var wire 1 !! mul_out.0010~q $end
$var wire 1 "! WideOr4~combout $end
$var wire 1 #! mul_out.1010~0_combout $end
$var wire 1 $! mul_out.1010~q $end
$var wire 1 %! mul_out~62_combout $end
$var wire 1 &! mul_out.0111~q $end
$var wire 1 '! WideOr2~0_combout $end
$var wire 1 (! WideOr3~combout $end
$var wire 1 )! mul_out~63_combout $end
$var wire 1 *! mul_out~64_combout $end
$var wire 1 +! mul_out.1001~0_combout $end
$var wire 1 ,! mul_out~65_combout $end
$var wire 1 -! mul_out.1001~q $end
$var wire 1 .! mul_out.0011~0_combout $end
$var wire 1 /! mul_out.0011~q $end
$var wire 1 0! WideOr2~combout $end
$var wire 1 1! WideOr1~0_combout $end
$var wire 1 2! WideOr1~combout $end
$var wire 1 3! mul_out~66_combout $end
$var wire 1 4! mul_out.0000~q $end
$var wire 1 5! WideOr0~0_combout $end
$var wire 1 6! counter [1] $end
$var wire 1 7! counter [0] $end
$upscope $end
$upscope $end
$enddefinitions $end
#0
$dumpvars
0!
b1011 "
1#
0'
0&
0%
0$
1/
1.
1-
1,
1+
1*
0)
0(
00
11
x2
13
14
15
16
07
08
09
0:
1;
1<
1=
1>
1?
1@
0A
0B
0C
0D
1E
0F
1G
1H
1I
1J
0K
1L
0M
1N
0O
0P
1Q
1R
0S
1T
0U
1V
0W
0X
0Y
0Z
0[
0\
0]
0^
0_
0`
0a
0b
0c
0d
0e
0f
0g
0h
0i
0j
0k
0l
0m
0n
0o
0p
1q
1r
0s
0t
0u
0v
0w
0x
0y
0z
0{
0|
0}
0~
0!!
0"!
0#!
0$!
0%!
0&!
1'!
0(!
0)!
0*!
0+!
0,!
0-!
0.!
0/!
00!
01!
02!
13!
04!
15!
07!
06!
$end
#5000
1!
1C
1D
1K
1b
1Z
#10000
b11 "
b1 "
0!
0G
0H
0C
0D
0q
1`
0r
#15000
1!
1C
1D
14!
1a
17!
1W
1U
1S
18
19
1:
05!
1}
1f
1t
1g
0Q
0N
1$
1%
1&
0`
1M
0L
0;
0<
1A
1i
1)
0.
0/
0R
1O
1j
#20000
b101 "
b100 "
b1100 "
0!
0E
1F
1H
0C
0D
0i
1c
0t
0j
1.!
#25000
1!
1C
1D
1/!
0a
16!
07!
0S
1P
17
08
11!
10!
0}
0f
1Q
0&
1'
0T
1L
1;
1<
0?
12!
0+
1.
1/
0.!
1R
1~
0@
0*
#30000
b1000 "
b1001 "
0!
1E
0F
0C
0D
0c
1z
0~
#35000
1!
1C
1D
0/!
1{
17!
0U
1S
18
09
01!
1|
0%
1&
0V
1T
0M
0L
02!
1}
1]
0z
0<
1@
1*
0.
#40000
b1011 "
b11 "
0!
1G
0H
0C
0D
1q
1m
0]
1%!
#45000
1!
1C
1D
1&!
0{
06!
07!
0W
1U
19
0:
15!
11!
0'!
00!
0|
0m
0g
1N
0$
1%
1V
1L
1?
0A
12!
10!
1(!
0}
0)
1+
0%!
1r
0O
1<
0>
0?
0@
0*
0+
0,
1.
#50000
b111 "
b1111 "
0!
1F
1H
0C
0D
1X
0I
0r
0b
0Z
0J
#55000
1!
1C
1D
17!
0K
1W
0P
07
1:
0Q
0N
1$
0'
0L
0R
1O
#60000
b1110 "
b1100 "
0!
0E
0G
0C
0D
0q
0X
1I
1g
1J
#65000
1!
1C
1D
1K
0W
0U
0S
08
09
0:
1c
1b
1Z
0$
0%
0&
1M
1.!
#70000
b1000 "
b1001 "
b1011 "
0!
1E
1G
0F
0C
0D
1q
0c
1*!
0.!
1+!
#75000
1!
1C
1D
1-!
0&!
16!
07!
1W
1U
1P
17
19
1:
05!
01!
1'!
1Q
1$
1%
1'
0T
1L
1A
02!
0(!
0*!
1)
1R
1>
1@
1*
1,
0+!
#80000
b11 "
b10 "
b0 "
0!
0E
0G
0H
0C
0D
0q
1c
1~
#85000
1!
1C
1D
0-!
1!!
17!
0U
1S
18
09
00!
11!
1"!
0%
1&
0V
1T
0M
0L
0=
1?
12!
1+
0-
1d
0~
0@
0*
#90000
b100 "
0!
1F
0C
0D
#95000
1!
1C
1D
0!!
1e
06!
07!
0W
1U
19
0:
0"!
15!
0'!
1f
0g
1N
0$
1%
1`
1V
1L
0;
0A
1=
10!
1(!
1-
0)
0/
1#!
0O
0d
0>
0?
0+
0,
#100000
b1100 "
b1101 "
b1111 "
b1011 "
0!
1E
1G
0F
1H
0C
0D
1q
0c
0`
1r
0#!
#105000
1!
1C
1D
1s
0e
17!
1W
0P
07
1:
1"!
1|
01!
1'!
0f
1g
0Q
0N
1$
0'
1M
0L
1;
0=
1}
02!
00!
0(!
1*!
0-
1/
0R
0r
1O
1>
1?
1@
0<
0.
1*
1+
1,
1+!
#110000
b11 "
b1 "
0!
0G
0H
0C
0D
0q
1i
1t
0*!
1j
0+!
#115000
1!
1C
1D
0s
1l
16!
07!
0S
1P
17
08
05!
0"!
0|
0t
1Q
0&
1'
0T
1L
1=
1A
0i
1)
1-
1R
1z
0j
#120000
b101 "
b1101 "
0!
1F
1H
0C
0D
#125000
1!
1C
1D
1{
0l
17!
0U
1S
18
09
10!
1|
0}
0%
1&
0V
1T
0M
0L
1<
0?
1}
0+
1.
1]
0z
0<
0.
#130000
b1111 "
b111 "
0!
1G
0H
0C
0D
1q
1m
1X
0]
1n
#135000
1!
1C
1D
0{
1o
06!
07!
0W
1U
19
0:
00!
1"!
0m
0g
1N
0$
1%
1V
1L
0=
1?
1+
0-
0n
1Y
0O
#140000
b110 "
b100 "
0!
0E
0G
0C
0D
0q
1c
0X
1`
1#!
0Y
#145000
1!
1C
1D
1$!
0o
17!
1W
0P
07
1:
1(!
0"!
0|
1t
1g
0Q
0N
1$
0'
0`
1M
0L
1=
0>
0}
0,
1-
1.!
0R
0#!
1O
1<
1.
#150000
b0 "
b1 "
0!
1E
0F
0C
0D
1i
0c
1j
0.!
#155000
1!
1C
1D
0$!
1l
16!
07!
0S
1P
17
08
0(!
1}
0t
1Q
0&
1'
0T
1L
0<
1>
0i
1,
0.
1R
1z
0j
#160000
b11 "
0!
1G
0C
0D
1q
0z
#165000
1!
1C
1D
0l
17!
0U
1S
18
09
0}
1m
0%
1&
0V
1T
0M
0L
1<
1.
1%!
#170000
b111 "
b110 "
0!
0E
1F
0C
0D
0q
0m
1c
0%!
1n
0n
1d
#175000
1!
1C
1D
1e
06!
07!
0W
1U
19
0:
15!
11!
0'!
1f
0g
1N
0$
1%
1V
1L
0;
0A
12!
10!
1(!
0)
0/
1#!
0O
0d
0>
0?
0@
0*
0+
0,
#180000
b10 "
b11 "
0!
1E
0F
0C
0D
1q
0c
1r
0#!
#185000
1!
1C
1D
1s
0e
17!
1W
0P
07
1:
1"!
1|
01!
1'!
0f
1t
1g
0Q
0N
1$
0'
1M
0L
1;
0=
1}
02!
00!
0(!
1*!
0-
1/
0R
0r
1O
1>
1?
1@
0<
0.
1*
1+
1,
1+!
#190000
b1011 "
b1001 "
0!
0G
1H
0C
0D
0q
1i
0t
0*!
1j
0+!
#195000
1!
1C
1D
0s
1l
16!
07!
0S
1P
17
08
05!
0"!
0|
1Q
0&
1'
0T
1L
1=
1A
0i
1)
1-
1R
1z
0j
#200000
b1000 "
b0 "
0!
0E
0H
0C
0D
1c
0z
1~
#205000
1!
1C
1D
1!!
0l
17!
0U
1S
18
09
11!
1"!
0}
0%
1&
0V
1T
0M
0L
1<
0=
12!
0-
1.
1d
0~
0@
0*
#210000
b100 "
b101 "
b1101 "
0!
1E
1F
1H
0C
0D
0c
1]
0d
#215000
1!
1C
1D
0!!
1^
06!
07!
0W
1U
19
0:
01!
0"!
0'!
1f
0g
1N
0$
1%
1`
1V
1L
0;
1=
02!
10!
1(!
1-
0/
0O
0]
0>
0?
1@
1*
0+
0,
#220000
b1100 "
b100 "
0!
0E
0H
0C
0D
1c
1#!
#225000
1!
1C
1D
1$!
0^
17!
1W
0P
07
1:
1'!
0f
1t
1g
0Q
0N
1$
0'
0`
1M
0L
1;
00!
1/
1.!
0R
0#!
1O
1?
1+
#230000
b0 "
b1 "
0!
1E
0F
0C
0D
1i
0c
1j
0.!
#235000
1!
1C
1D
0$!
1l
16!
07!
0S
1P
17
08
0(!
1}
0t
1Q
0&
1'
0T
1L
0<
1>
0i
1,
0.
1R
1z
0j
#240000
b11 "
b1011 "
0!
1G
1H
0C
0D
1q
0z
#245000
1!
1C
1D
0l
17!
0U
1S
18
09
0}
1m
0%
1&
0V
1T
0M
0L
1<
1.
1%!
#250000
b1111 "
b111 "
0!
1F
0H
0C
0D
1X
0%!
1n
#255000
1!
1C
1D
1o
06!
07!
0W
1U
19
0:
1"!
1|
0m
0g
1N
0$
1%
1V
1L
0=
1}
0-
0n
1Y
0O
0<
0.
#260000
b11 "
0!
0F
0C
0D
0X
1r
0Y
#265000
1!
1C
1D
1s
0o
17!
1W
0P
07
1:
15!
1t
1g
0Q
0N
1$
0'
1M
0L
0A
1*!
0)
0R
0r
1O
1+!
#270000
b111 "
0!
1F
0C
0D
0*!
1X
1v
0+!
1w
#275000
1!
1C
1D
1x
0s
16!
07!
0S
1P
17
08
1(!
0t
05!
1Q
0&
1'
0T
1L
1A
0>
0v
0,
1)
1R
03!
0w
#280000
b110 "
b10 "
0!
0E
0F
0C
0D
0q
1c
0X
1~
13!
#285000
1!
1C
1D
1!!
0x
17!
0U
1S
18
09
11!
0(!
0|
0%
1&
0V
1T
0M
0L
1>
12!
0}
1,
1d
0~
1<
0@
0*
1.
#290000
b1010 "
b1011 "
0!
1E
1H
0C
0D
1q
1m
0c
1%!
0d
#295000
1!
1C
1D
1&!
0!!
06!
07!
0W
1U
19
0:
15!
0'!
0"!
0m
0g
1N
0$
1%
1V
1L
1=
0A
10!
1(!
0)
1-
0%!
1r
0O
0>
0?
0+
0,
#300000
b1111 "
b111 "
b110 "
0!
0E
1F
0H
0C
0D
0q
1c
0r
1#!
#305000
1!
1C
1D
0&!
1$!
17!
1W
0P
07
1:
05!
01!
1'!
1t
1g
0Q
0N
1$
0'
1M
0L
1A
02!
00!
1)
1.!
0R
0#!
1O
1?
1@
1*
1+
#310000
b100 "
b0 "
b1000 "
0!
0G
0F
1H
0C
0D
0t
#315000
1!
1C
1D
1/!
0$!
16!
07!
0S
1P
17
08
11!
10!
0(!
1Q
0&
1'
0T
1L
1>
0?
12!
0+
1,
0.!
1R
1~
0@
0*
#320000
b1001 "
b1 "
0!
1E
0H
0C
0D
0c
1z
0~
#325000
1!
1C
1D
0/!
1{
17!
0U
1S
18
09
01!
1|
0%
1&
0V
1T
0M
0L
02!
1}
1]
0z
0<
1@
1*
0.
#330000
b1001 "
0!
1H
0C
0D
#335000
1!
1C
1D
0{
1^
06!
07!
0W
1U
19
0:
00!
0|
0'!
1f
0g
1N
0$
1%
1`
1V
1L
0;
1?
0}
10!
1(!
1+
0/
0O
0]
0>
0?
1<
1.
0+
0,
#340000
b1011 "
b1111 "
0!
1G
1F
0C
0D
1q
1\
1X
0I
0`
0b
0Z
1]
0J
#345000
1!
1C
1D
17!
0K
1W
0P
07
1:
0Q
0N
1$
0'
0L
0R
1O
#350000
b1110 "
b110 "
0!
0E
0H
0C
0D
0q
0X
1I
1t
0\
0]
1g
1J
#355000
1!
1C
1D
1K
0W
0U
0S
08
09
0:
1c
1b
1Z
0$
0%
0&
1M
1.!
#360000
b100 "
b0 "
0!
0G
0F
0C
0D
#365000
1!
1C
1D
1/!
0^
16!
07!
1W
1U
1P
17
19
1:
11!
1'!
0f
0t
1Q
1$
1%
1'
0T
1L
1;
12!
0(!
1/
0.!
1R
1~
1>
0@
0*
1,
#370000
b1 "
b1001 "
b1011 "
0!
1E
1G
1H
0C
0D
1q
0c
0~
#375000
1!
1C
1D
0/!
17!
0U
1S
18
09
01!
00!
1m
0%
1&
0V
1T
0M
0L
1?
02!
1+
1%!
1@
1*
#380000
b1111 "
b1110 "
b110 "
b100 "
0!
0E
0G
1F
0H
0C
0D
0q
0m
1c
0%!
1n
0n
1d
#385000
1!
1C
1D
1e
06!
07!
0W
1U
19
0:
15!
11!
0'!
1f
0g
1N
0$
1%
1`
1V
1L
0;
0A
12!
10!
1(!
0)
0/
1#!
0O
0d
0>
0?
0@
0*
0+
0,
#390000
b1100 "
b1110 "
0!
1G
1H
0C
0D
0`
#395000
1!
1C
1D
1$!
0e
17!
1W
0P
07
1:
05!
01!
1'!
0f
1g
0Q
0N
1$
0'
1M
0L
1;
1A
02!
00!
1)
1/
1.!
0R
0#!
1O
1?
1@
1*
1+
#400000
b1010 "
b1011 "
b1001 "
0!
1E
0G
0F
0C
0D
1i
0c
1j
0.!
#405000
1!
1C
1D
0$!
1l
16!
07!
0S
1P
17
08
0(!
1}
1Q
0&
1'
0T
1L
0<
1>
0i
1,
0.
1R
1z
0j
#410000
b1 "
b101 "
b111 "
0!
1G
1F
0H
0C
0D
1q
1X
0z
03!
#415000
1!
1C
1D
04!
0l
17!
0U
1S
18
09
15!
0}
1m
0%
1&
0V
1T
0M
0L
1<
0A
0)
1.
1n
13!
#420000
b110 "
b10 "
0!
0E
0F
0C
0D
0q
0m
1c
0X
1%!
0n
0%!
1d
#425000
1!
1C
1D
14!
1e
06!
07!
0W
1U
19
0:
11!
0'!
1f
0g
1N
0$
1%
1V
1L
0;
12!
10!
1(!
0/
1#!
0O
0d
0>
0?
0@
0*
0+
0,
#430000
b0 "
b100 "
0!
0G
1F
0C
0D
1`
#435000
1!
1C
1D
1$!
0e
17!
1W
0P
07
1:
05!
01!
1'!
0f
1t
1g
0Q
0N
1$
0'
0`
1M
0L
1;
1A
02!
00!
1)
1/
1.!
0R
0#!
1O
1?
1@
1*
1+
#440000
b0 "
0!
0F
0C
0D
#445000
1!
1C
1D
1/!
0$!
16!
07!
0S
1P
17
08
11!
10!
0(!
0t
1Q
0&
1'
0T
1L
1>
0?
12!
0+
1,
0.!
1R
1~
0@
0*
#450000
0!
0C
0D
#455000
1!
1C
1D
0/!
1!!
17!
0U
1S
18
09
00!
1"!
0%
1&
0V
1T
0M
0L
0=
1?
1+
0-
1d
0~
#460000
b10 "
0!
1G
0C
0D
#465000
1!
1C
1D
0!!
1e
06!
07!
0W
1U
19
0:
0"!
15!
0'!
1f
0g
1N
0$
1%
1V
1L
0;
0A
1=
10!
1(!
1-
0)
0/
1#!
0O
0d
0>
0?
0+
0,
#470000
b1010 "
b1011 "
b1001 "
0!
1E
0G
1H
0C
0D
0c
1`
0#!
#475000
1!
1C
1D
0e
1a
17!
1W
0P
07
1:
05!
01!
1'!
1}
1g
0Q
0N
1$
0'
0`
1M
0L
0<
1A
02!
00!
0(!
1i
1)
0.
0R
1O
1>
1?
1@
1*
1+
1,
1j
#480000
b1101 "
0!
1F
0C
0D
#485000
1!
1C
1D
1l
0a
16!
07!
0S
1P
17
08
0f
1Q
0&
1'
0T
1L
1;
0i
1/
1R
1z
0j
#490000
b101 "
b111 "
b11 "
0!
1G
0F
0H
0C
0D
1q
0z
#495000
1!
1C
1D
0l
17!
0U
1S
18
09
0}
1m
0%
1&
0V
1T
0M
0L
1<
1.
1%!
#500000
b1011 "
b1111 "
0!
1F
1H
0C
0D
1X
0I
0%!
0b
0J
#505000
1!
1C
1D
06!
07!
0K
0W
1U
19
0:
0m
0g
0Z
1N
0$
1%
1V
1L
0O
#510000
b1110 "
b1100 "
b1000 "
0!
0E
0G
0F
0C
0D
0q
0X
1I
1`
1r
0r
1J
#515000
1!
1C
1D
1K
0U
0S
0P
07
08
09
1c
1b
1Z
0%
0&
0'
1#!
#520000
b1100 "
0!
1F
0C
0D
#525000
1!
1C
1D
1$!
17!
1W
1U
1S
18
19
1:
1(!
1g
0Q
0N
1$
1%
1&
0`
1M
0L
0>
0,
1.!
0R
0#!
1O
#530000
b100 "
b0 "
0!
0F
0H
0C
0D
1t
#535000
1!
1C
1D
1/!
0$!
16!
07!
0S
1P
17
08
11!
10!
0(!
0t
1Q
0&
1'
0T
1L
1>
0?
12!
0+
1,
0.!
1R
1~
0@
0*
#540000
0!
0C
0D
#545000
1!
1C
1D
0/!
1!!
17!
0U
1S
18
09
00!
1"!
0%
1&
0V
1T
0M
0L
0=
1?
1+
0-
1d
0~
#550000
b10 "
b1010 "
0!
1G
1H
0C
0D
#555000
1!
1C
1D
0!!
1e
06!
07!
0W
1U
19
0:
0"!
15!
0'!
1f
0g
1N
0$
1%
1V
1L
0;
0A
1=
10!
1(!
1-
0)
0/
1#!
0O
0d
0>
0?
0+
0,
#560000
b1110 "
b1100 "
b100 "
0!
0G
1F
0H
0C
0D
1`
#565000
1!
1C
1D
1$!
0e
17!
1W
0P
07
1:
05!
01!
1'!
0f
1t
1g
0Q
0N
1$
0'
0`
1M
0L
1;
1A
02!
00!
1)
1/
1.!
0R
0#!
1O
1?
1@
1*
1+
#570000
b0 "
b10 "
0!
1G
0F
0C
0D
#575000
1!
1C
1D
1/!
0$!
16!
07!
0S
1P
17
08
11!
10!
0(!
0t
1Q
0&
1'
0T
1L
1>
0?
12!
0+
1,
0.!
1R
1~
0@
0*
#580000
b11 "
b1011 "
b1001 "
0!
1E
0G
1H
0C
0D
0c
1z
0~
#585000
1!
1C
1D
0/!
1{
17!
0U
1S
18
09
01!
1|
0%
1&
0V
1T
0M
0L
02!
1}
1]
0z
0<
1@
1*
0.
#590000
b1101 "
0!
1F
0C
0D
#595000
1!
1C
1D
0{
1^
06!
07!
0W
1U
19
0:
00!
0|
0'!
1f
0g
1N
0$
1%
1`
1V
1L
0;
1?
0}
10!
1(!
1+
0/
0O
0]
0>
0?
1<
1.
0+
0,
#600000
b1100 "
b100 "
b110 "
0!
0E
1G
0H
0C
0D
1c
0`
1#!
#605000
1!
1C
1D
1$!
0^
17!
1W
0P
07
1:
1'!
0f
1t
1g
0Q
0N
1$
0'
1M
0L
1;
00!
1/
1.!
0R
0#!
1O
1?
1+
#610000
0!
0C
0D
#615000
1!
1C
1D
1/!
0$!
16!
07!
0S
1P
17
08
11!
10!
0(!
0t
1Q
0&
1'
0T
1L
1>
0?
12!
0+
1,
0.!
1R
1~
0@
0*
#620000
b111 "
0!
1E
0C
0D
1q
0c
1X
0~
03!
#625000
1!
1C
1D
04!
0/!
17!
0U
1S
18
09
15!
01!
00!
1m
0%
1&
0V
1T
0M
0L
1?
0A
02!
0)
1+
1n
13!
1@
1*
#630000
b11 "
b1011 "
b1010 "
0!
0E
0F
1H
0C
0D
0q
0m
1c
0X
1%!
0n
03!
0%!
1d
13!
#635000
1!
1C
1D
14!
1e
06!
07!
0W
1U
19
0:
11!
0'!
1f
0g
1N
0$
1%
1V
1L
0;
12!
10!
1(!
0/
1#!
0O
0d
0>
0?
0@
0*
0+
0,
#640000
b1000 "
0!
0G
0C
0D
1`
#645000
1!
1C
1D
1$!
0e
17!
1W
0P
07
1:
05!
01!
1'!
0f
1g
0Q
0N
1$
0'
0`
1M
0L
1;
1A
02!
00!
1)
1/
1.!
0R
0#!
1O
1?
1@
1*
1+
#650000
b1100 "
b1101 "
0!
1E
1F
0C
0D
1i
0c
1j
0.!
#655000
1!
1C
1D
0$!
1l
16!
07!
0S
1P
17
08
0(!
1}
1Q
0&
1'
0T
1L
0<
1>
0i
1,
0.
1R
1z
0j
#660000
b101 "
0!
0H
0C
0D
#665000
1!
1C
1D
1{
0l
17!
0U
1S
18
09
10!
1|
0}
0%
1&
0V
1T
0M
0L
1<
0?
1}
0+
1.
1]
0z
0<
0.
#670000
0!
0C
0D
#675000
1!
1C
1D
0{
1^
06!
07!
0W
1U
19
0:
00!
0|
0'!
1f
0g
1N
0$
1%
1`
1V
1L
0;
1?
0}
10!
1(!
1+
0/
0O
0]
0>
0?
1<
1.
0+
0,
#680000
b111 "
b11 "
b1011 "
0!
1G
0F
1H
0C
0D
1q
0`
1r
#685000
1!
1C
1D
1s
0^
17!
1W
0P
07
1:
15!
1"!
1|
1'!
0f
1g
0Q
0N
1$
0'
1M
0L
1;
0=
0A
1}
00!
0(!
1*!
0)
0-
1/
0R
0r
1O
1>
1?
0<
0.
1+
1,
1+!
#690000
b1111 "
b111 "
0!
1F
0H
0C
0D
0*!
1X
1t
1v
0+!
1w
#695000
1!
1C
1D
1x
0s
16!
07!
0S
1P
17
08
1(!
0t
05!
1Q
0&
1'
0T
1L
1A
0>
0v
0,
1)
1R
03!
0w
#700000
b101 "
b1 "
0!
0G
0F
0C
0D
0q
0X
1z
13!
#705000
1!
1C
1D
1{
0x
17!
0U
1S
18
09
10!
0(!
0"!
0%
1&
0V
1T
0M
0L
1=
1>
0?
0+
1,
1-
1]
0z
#710000
b1001 "
b1011 "
0!
1G
1H
0C
0D
1q
1m
0]
1%!
#715000
1!
1C
1D
1&!
0{
06!
07!
0W
1U
19
0:
15!
11!
0'!
00!
0|
0m
0g
1N
0$
1%
1V
1L
1?
0A
12!
10!
1(!
0}
0)
1+
0%!
1r
0O
1<
0>
0?
0@
0*
0+
0,
1.
#720000
b1111 "
b111 "
b101 "
0!
0G
1F
0H
0C
0D
0q
1`
0r
#725000
1!
1C
1D
0&!
1a
17!
1W
0P
07
1:
05!
01!
1'!
1}
1f
1t
1g
0Q
0N
1$
0'
0`
1M
0L
0;
0<
1A
02!
00!
0(!
1i
1)
0.
0/
0R
1O
1>
1?
1@
1*
1+
1,
1j
#730000
b100 "
b0 "
0!
0E
0F
0C
0D
0i
1c
0j
1.!
#735000
1!
1C
1D
1/!
0a
16!
07!
0S
1P
17
08
11!
10!
0}
0f
0t
1Q
0&
1'
0T
1L
1;
1<
0?
12!
0+
1.
1/
0.!
1R
1~
0@
0*
#740000
b10 "
0!
1G
0C
0D
#745000
1!
1C
1D
0/!
1!!
17!
0U
1S
18
09
00!
1"!
0%
1&
0V
1T
0M
0L
0=
1?
1+
0-
1d
0~
#750000
b1010 "
b1011 "
b1111 "
0!
1E
1F
1H
0C
0D
1q
1m
0c
1X
0I
0b
0d
0J
1~
#755000
1!
1C
1D
06!
07!
0K
0W
1U
19
0:
0m
0g
0Z
1N
0$
1%
1V
1L
0O
#760000
b1110 "
b1010 "
0!
0E
0F
0C
0D
0q
0X
1I
1r
0r
1J
#765000
1!
1C
1D
1K
0U
0S
0P
07
08
09
1c
1b
1Z
0%
0&
0'
1#!
0~
#770000
b1000 "
b0 "
b1 "
0!
1E
0G
0H
0C
0D
0c
1`
0#!
#775000
1!
1C
1D
0!!
1a
17!
1W
1U
1S
18
19
1:
01!
0"!
1}
1f
1t
1g
0Q
0N
1$
1%
1&
0`
1M
0L
0;
0<
1=
02!
1i
1-
0.
0/
0R
1O
1@
1*
1j
#780000
b101 "
0!
1F
0C
0D
#785000
1!
1C
1D
1l
0a
16!
07!
0S
1P
17
08
0f
0t
1Q
0&
1'
0T
1L
1;
0i
1/
1R
1z
0j
#790000
b111 "
b11 "
0!
1G
0F
0C
0D
1q
0z
#795000
1!
1C
1D
0l
17!
0U
1S
18
09
0}
1m
0%
1&
0V
1T
0M
0L
1<
1.
1%!
#800000
b1011 "
b1010 "
b1000 "
0!
0E
0G
1H
0C
0D
0q
0m
1c
0%!
1d
#805000
1!
1C
1D
1e
06!
07!
0W
1U
19
0:
15!
11!
0'!
1f
0g
1N
0$
1%
1`
1V
1L
0;
0A
12!
10!
1(!
0)
0/
1#!
0O
0d
0>
0?
0@
0*
0+
0,
#810000
b1100 "
b1101 "
b1111 "
0!
1E
1G
1F
0C
0D
1q
0c
1X
0I
0`
0b
0Z
0#!
0J
1d
#815000
1!
1C
1D
17!
0K
1W
0P
07
1:
0Q
0N
1$
0'
0L
0R
1O
#820000
b111 "
b110 "
0!
0E
0H
0C
0D
0q
0X
1I
1t
1g
1J
#825000
1!
1C
1D
1K
0W
0U
0S
08
09
0:
1c
1b
1Z
0$
0%
0&
1M
1.!
0d
#830000
b1110 "
b1111 "
0!
1E
1H
0C
0D
1q
0c
1X
0I
0t
0g
0b
0.!
0J
1d
#835000
1!
1C
1D
16!
07!
0K
1W
1U
1P
17
19
1:
1g
0Z
1Q
1$
1%
1'
0T
1L
1R
#840000
b1011 "
b1001 "
0!
0G
0F
0C
0D
0q
0X
1I
1z
1J
#845000
1!
1C
1D
1K
0W
0U
0P
07
09
0:
1b
1Z
0$
0%
0'
0d
#850000
b1101 "
b1111 "
0!
1G
1F
0C
0D
1q
1X
0I
0z
0b
0J
1d
#855000
1!
1C
1D
17!
0K
1W
1S
1P
17
18
1:
1m
0Z
1$
1&
1'
0V
1T
0L
#860000
b1110 "
0!
0E
0C
0D
0q
0m
0X
1I
1J
#865000
1!
1C
1D
1K
0W
0S
0P
07
08
0:
1c
1b
1Z
0$
0&
0'
0M
#870000
b110 "
b10 "
0!
0F
0H
0C
0D
#875000
1!
1C
1D
06!
07!
1U
1S
1P
17
18
19
0g
1N
1%
1&
1'
1V
1L
1#!
0O
0d
#880000
b0 "
b1 "
0!
1E
0G
0C
0D
0c
1`
0#!
#885000
1!
1C
1D
0e
1a
17!
1W
0P
07
1:
05!
01!
1'!
1}
1t
1g
0Q
0N
1$
0'
0`
1M
0L
0<
1A
02!
00!
0(!
1i
1)
0.
0R
1O
1>
1?
1@
1*
1+
1,
1j
#890000
b11 "
b10 "
0!
0E
1G
0C
0D
0i
1c
0j
1.!
#895000
1!
1C
1D
1/!
0a
16!
07!
0S
1P
17
08
11!
10!
0}
0f
0t
1Q
0&
1'
0T
1L
1;
1<
0?
12!
0+
1.
1/
0.!
1R
1~
0@
0*
#900000
b0 "
b1 "
0!
1E
0G
0C
0D
0c
1z
0~
#905000
1!
1C
1D
0/!
1{
17!
0U
1S
18
09
01!
1|
0%
1&
0V
1T
0M
0L
02!
1}
1]
0z
0<
1@
1*
0.
#910000
b1001 "
b1011 "
0!
1G
1H
0C
0D
1q
1m
0]
1%!
