intelFPGA_lite/test/simulation/qsim/RandomDigitGenerator.msim.vcd
$comment
	File created using the following command:
		vcd file RandomDigitGenerator.msim.vcd -direction
$end
$date
	Thu May 25 16:53:06 2023
$end
$version
	ModelSim Version 10.5b
$end
$timescale
	1ps
$end

$scope module RandomDigitGenerator_vlg_vec_tst $end
$var reg 1 ! clk $end
$var reg 1 " reset $end
$var wire 1 # rand_num [1] $end
$var wire 1 $ rand_num [0] $end

$scope module i1 $end
$var wire 1 % gnd $end
$var wire 1 & vcc $end
$var wire 1 ' unknown $end
$var tri1 1 ( devclrn $end
$var tri1 1 ) devpor $end
$var tri1 1 * devoe $end
$var wire 1 + ~QUARTUS_CREATED_GND~I_combout $end
$var wire 1 , clk~input_o $end
$var wire 1 - clk~inputCLKENA0_outclk $end
$var wire 1 . reset~input_o $end
$var wire 1 / lfsr[0]~DUPLICATE_q $end
$var wire 1 0 lfsr[1]~1_combout $end
$var wire 1 1 lfsr[1]~DUPLICATE_q $end
$var wire 1 2 lfsr[2]~DUPLICATE_q $end
$var wire 1 3 lfsr[3]~2_combout $end
$var wire 1 4 feedback~combout $end
$var wire 1 5 rand_num[0]~0_combout $end
$var wire 1 6 prev_rand_num[0]~0_combout $end
$var wire 1 7 Equal0~0_combout $end
$var wire 1 8 rand_num[0]~reg0_q $end
$var wire 1 9 rand_num[1]~reg0_q $end
$var wire 1 : lfsr [3] $end
$var wire 1 ; lfsr [2] $end
$var wire 1 < lfsr [1] $end
$var wire 1 = lfsr [0] $end
$var wire 1 > prev_rand_num [1] $end
$var wire 1 ? prev_rand_num [0] $end
$upscope $end
$upscope $end
$enddefinitions $end
#0
$dumpvars
0!
0"
0$
0#
0%
1&
x'
1(
1)
1*
0+
0,
0-
0.
0/
10
01
02
13
04
15
16
17
08
09
0=
0<
0;
0:
0?
0>
$end
#5000
1!
1,
1-
1?
1<
1:
11
18
1$
14
#10000
0!
0,
0-
#15000
1!
1,
1-
1>
1=
12
1;
1/
19
1#
05
06
00
04
03
#20000
0!
0,
0-
#25000
1!
1,
1-
0?
0<
0=
0:
01
0/
08
0$
15
16
10
14
#30000
0!
0,
0-
#35000
1!
1,
1-
1?
0>
1<
1=
02
0;
11
1/
09
18
1$
0#
05
06
00
04
13
#40000
0!
0,
0-
#45000
1!
1,
1-
0?
1>
0<
0=
1:
12
1;
01
0/
19
08
0$
1#
15
16
10
03
#50000
0!
0,
0-
#55000
1!
1,
1-
1?
0>
1<
0:
02
0;
11
09
18
1$
0#
13
#60000
0!
0,
0-
#65000
1!
1,
1-
1>
1:
12
1;
19
1#
07
03
#70000
0!
0,
0-
#75000
1!
1,
1-
0:
14
#80000
0!
0,
0-
#85000
1!
1,
1-
1=
1/
17
05
06
00
#90000
0!
0,
0-
#95000
1!
1,
1-
0?
0<
01
08
0$
#100000
0!
0,
0-
#105000
1!
1,
1-
0>
02
0;
09
0#
07
04
13
#110000
0!
0,
0-
#115000
1!
1,
1-
0=
1:
0/
17
15
16
10
14
#120000
0!
0,
0-
#125000
1!
1,
1-
1?
1<
1=
11
1/
18
1$
05
06
00
#130000
0!
0,
0-
#135000
1!
1,
1-
0?
1>
0<
12
1;
01
19
08
0$
1#
04
03
#140000
0!
0,
0-
#145000
1!
1,
1-
0>
0=
0:
02
0;
0/
09
0#
15
16
10
13
#150000
0!
0,
0-
#155000
1!
1,
1-
1?
1<
1:
11
18
1$
14
#160000
0!
0,
0-
#165000
1!
1,
1-
1>
1=
12
1;
1/
19
1#
05
06
00
04
03
#170000
0!
0,
0-
#175000
1!
1,
1-
0?
0<
0=
0:
01
0/
08
0$
15
16
10
14
#180000
0!
0,
0-
#185000
1!
1,
1-
1?
0>
1<
1=
02
0;
11
1/
09
18
1$
0#
05
06
00
04
13
#190000
0!
0,
0-
#195000
1!
1,
1-
0?
1>
0<
0=
1:
12
1;
01
0/
19
08
0$
1#
15
16
10
03
#200000
0!
0,
0-
#205000
1!
1,
1-
1?
0>
1<
0:
02
0;
11
09
18
1$
0#
13
#210000
0!
0,
0-
#215000
1!
1,
1-
1>
1:
12
1;
19
1#
07
03
#220000
0!
0,
0-
#225000
1!
1,
1-
0:
14
#230000
0!
0,
0-
#235000
1!
1,
1-
1=
1/
17
05
06
00
#240000
0!
0,
0-
#245000
1!
1,
1-
0?
0<
01
08
0$
#250000
0!
0,
0-
#255000
1!
1,
1-
0>
02
0;
09
0#
07
04
13
#260000
0!
0,
0-
#265000
1!
1,
1-
0=
1:
0/
17
15
16
10
14
#270000
0!
0,
0-
#275000
1!
1,
1-
1?
1<
1=
11
1/
18
1$
05
06
00
#280000
0!
0,
0-
#285000
1!
1,
1-
0?
1>
0<
12
1;
01
19
08
0$
1#
04
03
#290000
0!
0,
0-
#295000
1!
1,
1-
0>
0=
0:
02
0;
0/
09
0#
15
16
10
13
#300000
0!
0,
0-
#305000
1!
1,
1-
1?
1<
1:
11
18
1$
14
#310000
0!
0,
0-
#315000
1!
1,
1-
1>
1=
12
1;
1/
19
1#
05
06
00
04
03
#320000
0!
0,
0-
#325000
1!
1,
1-
0?
0<
0=
0:
01
0/
08
0$
15
16
10
14
#330000
0!
0,
0-
#335000
1!
1,
1-
1?
0>
1<
1=
02
0;
11
1/
09
18
1$
0#
05
06
00
04
13
#340000
0!
0,
0-
#345000
1!
1,
1-
0?
1>
0<
0=
1:
12
1;
01
0/
19
08
0$
1#
15
16
10
03
#350000
0!
0,
0-
#355000
1!
1,
1-
1?
0>
1<
0:
02
0;
11
09
18
1$
0#
13
#360000
0!
0,
0-
#365000
1!
1,
1-
1>
1:
12
1;
19
1#
07
03
#370000
0!
0,
0-
#375000
1!
1,
1-
0:
14
#380000
0!
0,
0-
#385000
1!
1,
1-
1=
1/
17
05
06
00
#390000
0!
0,
0-
#395000
1!
1,
1-
0?
0<
01
08
0$
#400000
0!
0,
0-
#405000
1!
1,
1-
0>
02
0;
09
0#
07
04
13
#410000
0!
0,
0-
#415000
1!
1,
1-
0=
1:
0/
17
15
16
10
14
#420000
0!
0,
0-
#425000
1!
1,
1-
1?
1<
1=
11
1/
18
1$
05
06
00
#430000
0!
0,
0-
#435000
1!
1,
1-
0?
1>
0<
12
1;
01
19
08
0$
1#
04
03
#440000
0!
0,
0-
#445000
1!
1,
1-
0>
0=
0:
02
0;
0/
09
0#
15
16
10
13
#450000
0!
0,
0-
#455000
1!
1,
1-
1?
1<
1:
11
18
1$
14
#460000
0!
0,
0-
#465000
1!
1,
1-
1>
1=
12
1;
1/
19
1#
05
06
00
04
03
#470000
0!
0,
0-
#475000
1!
1,
1-
0?
0<
0=
0:
01
0/
08
0$
15
16
10
14
#480000
0!
0,
0-
#485000
1!
1,
1-
1?
0>
1<
1=
02
0;
11
1/
09
18
1$
0#
05
06
00
04
13
#490000
0!
0,
0-
#495000
1!
1,
1-
0?
1>
0<
0=
1:
12
1;
01
0/
19
08
0$
1#
15
16
10
03
#500000
0!
0,
0-
#505000
1!
1,
1-
1?
0>
1<
0:
02
0;
11
09
18
1$
0#
13
#510000
0!
0,
0-
#515000
1!
1,
1-
1>
1:
12
1;
19
1#
07
03
#520000
0!
0,
0-
#525000
1!
1,
1-
0:
14
#530000
0!
0,
0-
#535000
1!
1,
1-
1=
1/
17
05
06
00
#540000
0!
0,
0-
#545000
1!
1,
1-
0?
0<
01
08
0$
#550000
0!
0,
0-
#555000
1!
1,
1-
0>
02
0;
09
0#
07
04
13
#560000
0!
0,
0-
#565000
1!
1,
1-
0=
1:
0/
17
15
16
10
14
#570000
0!
0,
0-
#575000
1!
1,
1-
1?
1<
1=
11
1/
18
1$
05
06
00
#580000
0!
0,
0-
#585000
1!
1,
1-
0?
1>
0<
12
1;
01
19
08
0$
1#
04
03
#590000
0!
0,
0-
#595000
1!
1,
1-
0>
0=
0:
02
0;
0/
09
0#
15
16
10
13
#600000
0!
0,
0-
#605000
1!
1,
1-
1?
1<
1:
11
18
1$
14
#610000
0!
0,
0-
#615000
1!
1,
1-
1>
1=
12
1;
1/
19
1#
05
06
00
04
03
#620000
0!
0,
0-
#625000
1!
1,
1-
0?
0<
0=
0:
01
0/
08
0$
15
16
10
14
#630000
0!
0,
0-
#635000
1!
1,
1-
1?
0>
1<
1=
02
0;
11
1/
09
18
1$
0#
05
06
00
04
13
#640000
0!
0,
0-
#645000
1!
1,
1-
0?
1>
0<
0=
1:
12
1;
01
0/
19
08
0$
1#
15
16
10
03
#650000
0!
0,
0-
#655000
1!
1,
1-
1?
0>
1<
0:
02
0;
11
09
18
1$
0#
13
#660000
0!
0,
0-
#665000
1!
1,
1-
1>
1:
12
1;
19
1#
07
03
#670000
0!
0,
0-
#675000
1!
1,
1-
0:
14
#680000
0!
0,
0-
#685000
1!
1,
1-
1=
1/
17
05
06
00
#690000
0!
0,
0-
#695000
1!
1,
1-
0?
0<
01
08
0$
#700000
0!
0,
0-
#705000
1!
1,
1-
0>
02
0;
09
0#
07
04
13
#710000
0!
0,
0-
#715000
1!
1,
1-
0=
1:
0/
17
15
16
10
14
#720000
0!
0,
0-
#725000
1!
1,
1-
1?
1<
1=
11
1/
18
1$
05
06
00
#730000
0!
0,
0-
#735000
1!
1,
1-
0?
1>
0<
12
1;
01
19
08
0$
1#
04
03
#740000
0!
0,
0-
#745000
1!
1,
1-
0>
0=
0:
02
0;
0/
09
0#
15
16
10
13
#750000
0!
0,
0-
#755000
1!
1,
1-
1?
1<
1:
11
18
1$
14
#760000
0!
0,
0-
#765000
1!
1,
1-
1>
1=
12
1;
1/
19
1#
05
06
00
04
03
#770000
0!
0,
0-
#775000
1!
1,
1-
0?
0<
0=
0:
01
0/
08
0$
15
16
10
14
#780000
0!
0,
0-
#785000
1!
1,
1-
1?
0>
1<
1=
02
0;
11
1/
09
18
1$
0#
05
06
00
04
13
#790000
0!
0,
0-
#795000
1!
1,
1-
0?
1>
0<
0=
1:
12
1;
01
0/
19
08
0$
1#
15
16
10
03
#800000
0!
0,
0-
#805000
1!
1,
1-
1?
0>
1<
0:
02
0;
11
09
18
1$
0#
13
#810000
0!
0,
0-
#815000
1!
1,
1-
1>
1:
12
1;
19
1#
07
03
#820000
0!
0,
0-
#825000
1!
1,
1-
0:
14
#830000
0!
0,
0-
#835000
1!
1,
1-
1=
1/
17
05
06
00
#840000
0!
0,
0-
#845000
1!
1,
1-
0?
0<
01
08
0$
#850000
0!
0,
0-
#855000
1!
1,
1-
0>
02
0;
09
0#
07
04
13
#860000
0!
0,
0-
#865000
1!
1,
1-
0=
1:
0/
17
15
16
10
14
#870000
0!
0,
0-
#875000
1!
1,
1-
1?
1<
1=
11
1/
18
1$
05
06
00
#880000
0!
0,
0-
#885000
1!
1,
1-
0?
1>
0<
12
1;
01
19
08
0$
1#
04
03
#890000
0!
0,
0-
#895000
1!
1,
1-
0>
0=
0:
02
0;
0/
09
0#
15
16
10
13
#900000
0!
0,
0-
#905000
1!
1,
1-
1?
1<
1:
11
18
1$
14
#910000
0!
0,
0-
#915000
1!
1,
1-
1>
1=
12
1;
1/
19
1#
05
06
00
04
03
#920000
0!
0,
0-
#925000
1!
1,
1-
0?
0<
0=
0:
01
0/
08
0$
15
16
10
14
#930000
0!
0,
0-
#935000
1!
1,
1-
1?
0>
1<
1=
02
0;
11
1/
09
18
1$
0#
05
06
00
04
13
#940000
0!
0,
0-
#945000
1!
1,
1-
0?
1>
0<
0=
1:
12
1;
01
0/
19
08
0$
1#
15
16
10
03
#950000
0!
0,
0-
#955000
1!
1,
1-
1?
0>
1<
0:
02
0;
11
09
18
1$
0#
13
#960000
0!
0,
0-
#965000
1!
1,
1-
1>
1:
12
1;
19
1#
07
03
#970000
0!
0,
0-
#975000
1!
1,
1-
0:
14
#980000
0!
0,
0-
#985000
1!
1,
1-
1=
1/
17
05
06
00
#990000
0!
0,
0-
#995000
1!
1,
1-
0?
0<
01
08
0$
